[start]
20160101	0	20300101	0	50700	999999	0	0	1	1	0	150	0	0	0	0	7500	0	2000	0	500	0	0	0	Some Cats only appear here! All Cats here are Rare or above.
20180109	1100	20300101	1100	50700	999999	0	0	0	1	0	0	0	0	10000	0	0	0	0	0	0	0	0	0	
20170101	0	20300101	0	50700	999999	0	0	2	2	0	30	0	0	0	0	7500	0	2000	0	500	0	0	0		0	30	0	0	0	0	7500	0	2000	0	500	0	0	0	
20170101	0	20300101	0	50700	999999	0	0	3	2	0	75	0	0	0	0	7500	0	2000	0	500	0	0	0		0	75	0	0	0	0	7500	0	2000	0	500	0	0	0	
20181013	1100	20300101	1100	70400	999999	0	0	1	4	-1	150	0	0	0	0	7500	0	2000	0	500	0	0	0		-1	150	0	0	0	0	7500	0	2000	0	500	0	0	0		-1	150	0	0	0	0	7500	0	2000	0	500	0	0	0		320	0	0	0	0	0	0	0	0	0	10000	0	0	0	Get an Uber Rare Cat!! 100% Uber drop Rate in the PLATINUM CAPSULES!
20191012	1100	20300101	1100	80900	999999	0	0	1	4	-1	150	0	0	0	0	7500	0	2000	0	500	0	0	0		-1	150	0	0	0	0	7500	0	2000	0	500	0	0	0		-1	150	0	0	0	0	7500	0	2000	0	500	0	0	0		401	0	0	0	0	0	0	0	0	0	10000	0	0	0	Get an Uber Rare Cat!! 100% Uber drop Rate in the PLATINUM CAPSULES!
20191016	1100	20191102	0	80900	999999	0	0	0	4	-1	150	0	0	0	0	7500	0	2000	0	500	0	0	0		-1	150	0	0	0	0	7500	0	2000	0	500	0	0	0		-1	150	0	0	0	0	7500	0	2000	0	500	0	0	0		33	0	300	0	0	0	5100	0	3500	0	1400	0	0	0	【Limited Event】 Special chance for XP and Catamins! ★ On thru 11/1!
20191018	1100	20191101	1100	80900	999999	0	0	1	2	-1	0	0	0	0	0	0	0	0	0	0	0	0	0		257	150	0	0	0	0	7000	0	2500	0	500	0	0	0	Limited Halloween Units! Get spooky special editions of Uber Cats!
20191027	1100	20191029	1100	80900	999999	0	0	1	1	364	150	0	0	0	0	6970	0	2500	0	500	0	30	0	★ Ultra Souls ★ Mythical Uber Cats, with a new mystery member?!
20191029	1100	20191101	1100	80900	999999	0	0	1	1	404	150	0	0	0	0	6970	0	2500	0	500	1	30	0	Myrcia is here to grant you her powers! ★ Tap banner for more info!
20191029	1100	20191101	1100	80900	999999	0	0	1	2	-1	0	0	0	0	0	0	0	0	0	0	0	0	0		257	150	0	0	0	0	7000	0	2500	0	500	1	0	0	★ Halloween Gals ★  Guaranteed Uber with any 11-Capsule Draw!
20191029	1100	20300101	1100	80900	999999	0	0	1	4	-1	0	0	0	0	0	0	0	0	0	0	0	0	0		-1	0	0	0	0	0	0	0	0	0	0	0	0	0		-1	0	0	0	0	0	0	0	0	0	0	0	0	0		407	0	0	0	0	0	0	0	0	0	10000	0	0	0	Get an Uber Rare Cat!! 100% Uber drop Rate in the PLATINUM CAPSULES!
20191101	1100	20191115	1100	81000	999999	0	0	1	1	415	150	0	0	0	0	6970	0	2500	0	500	0	30	0	Street Fighter V: AE Collab Capsules! ★ Tap banner for details!
20191101	1100	20191104	1100	81000	999999	0	0	1	2	-1	0	0	0	0	0	0	0	0	0	0	0	0	0		405	150	0	0	0	0	6500	0	2600	0	900	0	0	0	Uberfest is here! ★ Extra-high Uber drop rate for every draw!
20191104	1100	20191106	1100	81000	999999	0	0	1	2	-1	0	0	0	0	0	0	0	0	0	0	0	0	0		336	150	0	0	0	0	6970	0	2500	0	500	0	30	0	★ Dragon Emperors ★ Collect a mighty monstrous Uber Cat!
20191106	1100	20191108	1100	81000	999999	0	0	1	2	-1	0	0	0	0	0	0	0	0	0	0	0	0	0		354	150	0	0	0	0	7000	0	2500	0	500	0	0	0	Spooky beauties from the netherworld! It's the GIRLS & MONSTERS!
20191108	1100	20191115	1100	81000	999999	0	0	1	1	415	150	0	0	0	0	6970	0	2500	0	500	1	30	0	Street Fighter V: AE Collab Capsules! ★ With 11-Draw Guaranteed Uber!
20191108	1100	20191110	1100	81000	999999	0	0	1	2	-1	0	0	0	0	0	0	0	0	0	0	0	0	0		380	150	0	0	0	0	6970	0	2500	0	500	1	30	0	★ Elemental Pixies ★ Cosmic powers brought to life, with a mystery elemental!
20191110	1100	20191112	1100	81000	999999	0	0	1	2	-1	0	0	0	0	0	0	0	0	0	0	0	0	0		392	150	0	0	0	0	6970	0	2500	0	500	1	30	0	The Almighties ★ Supreme beings of Catkind, with a hidden Almighty!
20191112	1100	20191115	1100	81000	999999	0	0	1	1	415	150	0	0	0	0	6970	0	2500	0	500	1	30	0	【Last Chance】Street Fighter V: AE Capsules w/ 11-Draw Guarantee!
20191112	1100	20191115	1100	81000	999999	0	0	1	2	-1	0	0	0	0	0	0	0	0	0	0	0	0	0		384	150	0	0	0	0	6970	0	2500	0	500	1	30	0	Dark Heroes ★ Defend justice with Uber Cats, plus a hidden Legend!
[end]
