[start]
20160101	0	20300101	0	50700	999999	0	0	1	1	0	150	0	0	0	0	7500	0	2000	0	500	0	0	0	Some Cats only appear here! All Cats here are Rare or above.
20180109	1100	20300101	1100	50700	999999	0	0	0	1	0	0	0	0	10000	0	0	0	0	0	0	0	0	0	
20170101	0	20300101	0	50700	999999	0	0	2	2	0	30	0	0	0	0	7500	0	2000	0	500	0	0	0		0	30	0	0	0	0	7500	0	2000	0	500	0	0	0	
20170101	0	20300101	0	50700	999999	0	0	3	2	0	75	0	0	0	0	7500	0	2000	0	500	0	0	0		0	75	0	0	0	0	7500	0	2000	0	500	0	0	0	
20181013	1100	20300101	1100	70400	999999	0	0	1	4	-1	150	0	0	0	0	7500	0	2000	0	500	0	0	0		-1	150	0	0	0	0	7500	0	2000	0	500	0	0	0		-1	150	0	0	0	0	7500	0	2000	0	500	0	0	0		320	0	0	0	0	0	0	0	0	0	10000	0	0	0	Get an Uber Rare Cat!! 100% Uber drop Rate in the PLATINUM CAPSULES!
20190816	1100	20190902	0	80700	999999	0	0	0	4	-1	150	0	0	0	0	7500	0	2000	0	500	0	0	0		-1	150	0	0	0	0	7500	0	2000	0	500	0	0	0		-1	150	0	0	0	0	7500	0	2000	0	500	0	0	0		29	0	300	0	0	0	5100	0	3500	0	1400	0	0	0	【Limited Event】 Special chance for XP and Catamins! ★ On thru 9/1!
20190826	1100	20190902	1100	80700	999999	0	0	0	2	-1	0	0	0	0	0	7500	0	2000	0	500	0	0	0		5	0	0	2	500	0	7000	0	2000	0	500	0	0	0	★ Limited Capsules ★ Pick up extra Catseyes in this special Capsule set!
20190826	1100	20190829	1100	80700	999999	0	0	1	1	245	150	0	4	0	0	7000	0	2500	0	500	0	0	0	★ Red Busters w/ Pai-Pai! ★ Plus Increasing Capsules!
20190829	1100	20190901	1100	80700	999999	0	0	1	1	246	150	0	4	0	0	7000	0	2500	0	500	0	0	0	AIR BUSTERS plus R.E.I ★ With Increasing Capsules discount!
20190901	1100	20190904	1100	80800	999999	0	0	1	1	360	150	0	0	0	0	6500	0	2600	0	900	0	0	0	Uberfest is here! ★ Extra-high Uber drop rate for every draw!
20190904	1100	20190906	1100	80800	999999	0	0	1	1	330	150	0	0	0	0	6970	0	2500	0	500	0	30	0	★ Vajiras Wargods ★ Tactical Master Uber Cats, with a new mystery general?!
20190906	1100	20190909	1100	80800	999999	0	0	1	1	392	150	0	0	0	0	6970	0	2500	0	500	1	30	0	The Almighties ★ Supreme beings of Catkind, with a hidden Almighty!
20190909	1100	20190911	1100	80800	999999	0	0	1	1	333	150	0	0	0	0	6970	0	2500	0	500	0	30	0	★ Galaxy Gals★ Cute 'n' tough Uber Cats, with a new mystery member?!?!
20190911	1100	20190914	1100	80800	999999	0	0	1	1	380	150	0	0	0	0	6970	0	2500	0	500	0	30	0	★ Elemental Pixies ★ Cosmic powers brought to life, with a mystery elemental!
20190914	1100	20190917	1100	80800	999999	0	0	1	1	361	150	0	0	0	0	6500	0	2600	0	900	0	0	0	D'arktanyan is here! ★ Plus higher drop rate for Uber Rares!
20190916	1100	20191002	0	80800	999999	0	0	0	4	-1	150	0	0	0	0	7500	0	2000	0	500	0	0	0		-1	150	0	0	0	0	7500	0	2000	0	500	0	0	0		-1	150	0	0	0	0	7500	0	2000	0	500	0	0	0		32	0	300	0	0	0	5100	0	3500	0	1400	0	0	0	【Limited Event】 Special chance for XP and Catamins! ★ On thru 10/1!
[end]
