[start]
20160101	0	20300101	0	50700	999999	0	0	1	1	0	150	0	0	0	0	7500	0	2000	0	500	0	0	0	Some Cats only appear here! All Cats here are Rare or above.
20180109	1100	20300101	1100	50700	999999	0	0	0	1	0	0	0	0	10000	0	0	0	0	0	0	0	0	0	
20170101	0	20300101	0	50700	999999	0	0	2	2	0	30	0	0	0	0	7500	0	2000	0	500	0	0	0		0	30	0	0	0	0	7500	0	2000	0	500	0	0	0	
20170101	0	20300101	0	50700	999999	0	0	3	2	0	75	0	0	0	0	7500	0	2000	0	500	0	0	0		0	75	0	0	0	0	7500	0	2000	0	500	0	0	0	
20181013	1100	20300101	1100	70400	999999	0	0	1	4	-1	150	0	0	0	0	7500	0	2000	0	500	0	0	0		-1	150	0	0	0	0	7500	0	2000	0	500	0	0	0		-1	150	0	0	0	0	7500	0	2000	0	500	0	0	0		320	0	0	0	0	0	0	0	0	0	10000	0	0	0	Get an Uber Rare Cat!! 100% Uber drop Rate in the PLATINUM CAPSULES!
20190313	1100	20190315	1100	80202	999999	0	0	1	1	245	150	0	4	0	0	7000	0	2500	0	500	0	0	0	★ Red Busters w/ Pai-Pai! ★ Plus Increasing Capsules!
20190315	1100	20190318	1100	80202	999999	0	0	1	1	361	150	0	0	0	0	6500	0	2600	0	900	0	0	0	D'arktanyan is here! ★ Plus higher drop rate for Uber Rares!
20190316	1100	20190402	0	80202	999999	0	0	0	2	-1	0	300	0	0	0	5100	0	3500	0	1400	0	0	0		21	0	300	0	0	0	5100	0	3500	0	1400	0	0	0	【Limited Event】 Special chance for XP and Catamins! ★ On thru 4/1!
20190318	1100	20190401	1100	80300	999999	0	0	1	1	375	150	0	0	0	0	7000	0	2500	0	500	0	0	0	Survive! Mola Mola! Collab Capsules! ★ Tap the banner for info!
20190318	1100	20190320	1100	80300	999999	0	0	1	2	-1	150	0	0	0	0	7500	0	2000	0	500	0	0	0		362	150	0	0	0	0	6970	0	2500	0	500	0	30	0	★ Ultra Souls ★ Mythical Uber Cats, with a new mystery member?!
20190320	1100	20190322	1100	80300	999999	0	0	1	2	-1	150	0	0	0	0	7500	0	2000	0	500	0	0	0		330	150	0	0	0	0	6970	0	2500	0	500	0	30	0	★ Vajiras Wargods ★ Tactical Master Uber Cats, with a new mystery general?!
20190322	1100	20190325	1100	80300	999999	0	0	1	2	-1	150	0	0	0	0	7500	0	2000	0	500	0	0	0		351	150	0	0	0	0	7000	0	2500	0	500	0	0	0	★ Elemental Pixies ★ Cosmic powers brought to life as Uber Rare allies!
20190325	1100	20190401	1100	80300	999999	0	0	1	1	376	150	0	0	0	0	7000	0	2500	0	500	0	0	0	Survive! Mola Mola! Collab Capsules! ★ Tap the banner for info!
20190325	1100	20190327	1100	80300	999999	0	0	1	2	-1	150	0	0	0	0	7500	0	2000	0	500	0	0	0		369	150	0	0	0	0	6970	0	2500	0	500	0	30	0	The mighty Dynamites are here! Variety and power await you!
20190327	1100	20190401	1100	80300	999999	0	0	1	1	376	150	0	0	0	0	7000	0	2500	0	500	1	0	0	Ending Soon: Survive! Mola Mola! Collab Capsules! ★ With 11-Draw Guarantee!
20190327	1100	20190329	1100	80300	999999	0	0	1	2	-1	150	0	0	0	0	7500	0	2000	0	500	0	0	0		333	150	0	0	0	0	6970	0	2500	0	500	1	30	0	★ Galaxy Gals★ Cute 'n' tough Uber Cats, with a new mystery member?!?!
20190329	1100	20190401	1100	80300	999999	0	0	1	2	-1	150	0	0	0	0	7500	0	2000	0	500	0	0	0		342	150	0	0	0	0	7000	0	2500	0	500	1	0	0	★ Dark Heroes ★ Superpowered Uber Cats with 11-Draw Guarantee!
[end]
