[start]
20180109	1100	20300101	1100	50700	999999	0	0	0	1	0	0	0	0	10000	0	0	0	0	0	0	0	0	0	
20170101	0	20300101	0	80200	999999	0	0	2	3	0	30	0	0	0	0	7500	0	2000	0	500	0	0	0		0	30	0	0	0	0	7500	0	2000	0	500	0	0	0		0	30	0	0	0	0	7500	0	2000	0	500	0	0	0	
20170101	0	20300101	0	80200	999999	0	0	3	3	0	75	0	0	0	0	7500	0	2000	0	500	0	0	0		0	75	0	0	0	0	7500	0	2000	0	500	0	0	0		0	75	0	0	0	0	7500	0	2000	0	500	0	0	0	
20201009	1100	20300101	1100	90900	999999	0	0	1	4	-1	0	0	0	0	0	0	0	0	0	0	0	0	0		-1	0	0	0	0	0	0	0	0	0	0	0	0	0		-1	0	0	0	0	0	0	0	0	0	0	0	0	0		525	0	0	0	0	0	0	0	0	0	10000	0	0	0	Get an Uber Rare Cat!! 100% Uber drop Rate in the PLATINUM CAPSULES!
20201113	1100	20300101	1100	91000	999999	0	0	1	4	-1	0	0	0	0	0	0	0	0	0	0	0	0	0		-1	0	0	0	0	0	0	0	0	0	0	0	0	0		-1	0	0	0	0	0	0	0	0	0	0	0	0	0		543	0	0	0	0	0	0	0	0	0	10000	0	0	0	Get an Uber Rare Cat!! 100% Uber drop Rate in the PLATINUM CAPSULES!
20210212	000	20300101	1100	100200	999999	0	0	1	4	-1	0	0	0	0	0	0	0	0	0	0	0	0	0		-1	0	0	0	0	0	0	0	0	0	0	0	0	0		-1	0	0	0	0	0	0	0	0	0	0	0	0	0		556	0	0	0	0	0	0	0	0	0	10000	0	0	0	Get an Uber Rare Cat!! 100% Uber drop Rate in the PLATINUM CAPSULES!
20210503	1100	20300101	000	100400	999999	0	0	0	3	-1	0	0	0	0	0	0	0	0	0	0	0	0	0		-1	0	0	0	0	0	0	0	0	0	0	0	0	0		62	0	0	0	0	0	7400	0	2100	0	500	0	0	0	【Limited】 Collect Li'l Cats only during this event!
20210416	1100	20300101	000	100400	999999	0	0	0	4	-1	0	0	0	0	0	0	0	0	0	0	0	0	0		-1	0	0	0	0	0	0	0	0	0	0	0	0	0		-1	0	0	0	0	0	0	0	0	0	0	0	0	0		63	0	300	0	0	0	5100	0	3500	0	1400	0	0	0	【Limited Event】 Special chance for XP and Catamins!
20210507	1100	20300101	1100	100400	999999	0	0	1	4	-1	0	0	0	0	0	0	0	0	0	0	0	0	0		-1	0	0	0	0	0	0	0	0	0	0	0	0	0		-1	0	0	0	0	0	0	0	0	0	0	0	0	0		577	0	0	0	0	0	0	0	0	0	10000	0	0	0	Get an Uber Rare Cat!! 100% Uber drop Rate in the PLATINUM CAPSULES!
20210709	0	20300101	1100	100600	999999	0	0	1	4	-1	0	0	0	0	0	0	0	0	0	0	0	0	0		-1	0	0	0	0	0	0	0	0	0	0	0	0	0		-1	0	0	0	0	0	0	0	0	0	0	0	0	0		592	0	0	0	0	0	0	0	0	0	10000	0	0	0	Get an Uber Rare Cat!! 100% Uber drop Rate in the PLATINUM CAPSULES!	0	0	0	4	fr	Obtiens un ultra rare ! 100 % de chances avec les Chapsules platine !	it	Ottieni un gatto ultra raro! 100% possibilità di Ultra nelle CAPSULE PLATINO!	de	Hol dir eine megaseltene Katze!! 100-%-Chance in den PLATINKAPSELN!	es	¡Gana un gato megarraro! Garantizado en las BOLAS DE PLATINO.
20210827	1100	20300101	1100	100700	999999	0	0	1	4	-1	0	0	0	0	0	0	0	0	0	0	0	0	0		-1	0	0	0	0	0	0	0	0	0	0	0	0	0		-1	0	0	0	0	0	0	0	0	0	0	0	0	0		603	0	0	0	0	0	0	0	0	0	10000	0	0	0	Get an Uber Rare Cat!! 100% Uber drop Rate in the PLATINUM CAPSULES!	0	0	0	4	fr	Obtiens un ultra rare ! 100 % de chances avec les Chapsules platine !	it	Ottieni un gatto ultra raro! 100% possibilità di Ultra nelle CAPSULE PLATINO!	de	Hol dir eine megaseltene Katze!! 100-%-Chance in den PLATINKAPSELN!	es	¡Gana un gato megarraro! Garantizado en las BOLAS DE PLATINO.
20210917	1100	20300101	1100	100800	999999	0	0	1	4	-1	0	0	0	0	0	0	0	0	0	0	0	0	0		-1	0	0	0	0	0	0	0	0	0	0	0	0	0		-1	0	0	0	0	0	0	0	0	0	0	0	0	0		616	0	0	0	0	0	0	0	0	0	10000	0	0	0	Get an Uber Rare Cat!! 100% Uber drop Rate in the PLATINUM CAPSULES!	0	0	0	4	fr	Obtiens un ultra rare ! 100 % de chances avec les Chapsules platine !	it	Ottieni un gatto ultra raro! 100% possibilità di Ultra nelle CAPSULE PLATINO!	de	Hol dir eine megaseltene Katze!! 100-%-Chance in den PLATINKAPSELN!	es	¡Gana un gato megarraro! Garantizado en las BOLAS DE PLATINO.
20210917	1100	20211001	000	100800	999999	0	0	0	2	-1	0	0	0	0	0	0	0	0	0	0	0	0	0		5	0	0	2	500	0	7000	0	2000	0	500	0	0	0	★ Limited Capsules ★ Pick up extra Catseyes in this special Capsule set!	0	4	fr	★ Chapsules à durée limitée ★ Plus d’œils-de-chat dans ces Chapsules spéciales !	it	★ Capsule limitate ★ Ottieni Occhio di gatto in questo speciale set capsule!	de	★ Limitierte Kapseln ★ Hol dir zusätzliche Katzenaugen durch dieses Kapselset!	es	★ Bolas exclusivas ★ ¡Consigue más gatojos en esta serie especial de bolas!
20210927	1100	20211001	000	100800	999999	0	0	1	1	599	150	0	0	0	0	6970	0	2500	0	500	0	30	0	7 Year Celebration: Ultra Selection! ★ Tap banner for info!	4	fr	Célébration des 7 ans : Ultra rares au choix ! ★ Touche pour plus d’infos !	it	Festeggiamo 7 anni: Selezione Ultra! ★ Tocca il banner!	de	7-Jahres-Feier: Mega-Auswahl! ★ Tippe auf das Banner!	es	Celebración de los 7 años: ¡Selección milagrosa! ★ ¡Toca para saber más!
20210927	1100	20210929	1100	100800	999999	0	0	1	2	-1	0	0	0	0	0	0	0	0	0	0	0	0	0		572	150	0	0	0	0	6970	0	2500	0	500	0	30	0	NEW Iron Legion Hero Mighty Aethur Ltd. ★ Tap banner fo info!	0	4	fr	Artillerie féline avec Chat légendaire top secret ! ★ Touche pour plus d’infos !	it	L'artiglieria definitiva con un Gatto leggendario segreto?! ★ Tocca il banner!	de	Ultimative Katzenartillerie mit geheimer Legende?! ★ Tippe auf das Banner!	es	La mejor artillería felina y... ¿una leyenda secreta? ★ ¡Toca para saber más!
20210929	1100	20211001	000	100800	999999	0	0	1	2	-1	0	0	0	0	0	0	0	0	0	0	0	0	0		427	150	0	0	0	0	6970	0	2500	0	500	0	30	0	Slay your foes with the mighty Vajiras! ★ Tap banner for info!	0	4	fr	Élimine tes ennemis avec les puissants Vajiras ! ★ Touche pour plus d’infos !	it	Uccidi i nemici con il potente Vajiras! ★ Tocca il banner!	de	Vernichte deine Feinde mit dem mächtigen Vajiras! ★ Tippe auf das Banner!	es	¡Derrota enemigos con los poderosos Vajiras! ★ ¡Toca para saber más!
20211001	000	20211015	1100	100900	999999	0	0	0	2	-1	0	0	0	0	0	0	0	0	0	0	0	0	0		3	0	300	0	400	0	2000	0	7000	0	600	0	0	0	Limited Capsules ★ Collect Catfruit by drawing from this set!	0	4	fr	Chapsules ponctuelles ★ Obtiens des Chagrumes dans cet ensemble !	it	Capsule limitate ★ Ottieni miagrumi sorteggiando da questo set!	de	Limitierte Kapseln ★ Sammle Katzenfrüchte aus diesem Set!	es	Bolas exclusivas ★ ¡Consigue fruta felina en esta serie de bolas!
20211001	000	20211004	1100	100900	999999	0	0	1	1	622	150	0	0	0	0	6500	0	2500	0	1000	0	0	0	All Limited Ubers from Uberfest/Epicfest! Huge Uber drop rate boost!	4	fr	Tous les ultra rares ponctuels Maxi-fête/Méga-fête ! Gros boost du taux d’obt. !	it	Tutti gli Ultra limitati di Festival Ultra/Epico! Maggiori ricompense Ultra!	de	Alle limit. Megaseltenen aus Mega-/Epischem Fest! Riesenchance auf Megaseltene!	es	¡Todos los megarraros del Megafesti/Hiperfesti! ¡Más probabilidad de megarraros!
20211004	1100	20211008	1100	100900	999999	0	0	1	1	600	150	0	0	0	0	6970	0	2500	0	500	0	30	0	7 Year Celebration: Miracle Selection! ★ Tap banner for info!	4	fr	Célébration des 7 ans : Choix miraculeux ! ★ Touche pour plus d’infos !	it	Festeggiamo 7 anni: Selezione Miracolo! ★ Tocca il banner!	de	7-Jahres-Feier: Wunderauswahl! ★ Tippe auf das Banner!	es	Celebración de los 7 años: ¡Ultraselección! ★ ¡Toca para saber más!
20211004	1100	20211018	1100	100900	999999	0	0	1	2	-1	0	0	0	0	0	0	0	0	0	0	0	0	0		620	150	0	0	0	0	7000	0	2500	0	500	0	0	0	Pick up mighty teammates to fight by your side in a Hotblooded Clash!	0	4	fr	Pick up mighty teammates to fight by your side in a Hotblooded Clash!	it	Pick up mighty teammates to fight by your side in a Hotblooded Clash!	de	Pick up mighty teammates to fight by your side in a Hotblooded Clash!	es	Pick up mighty teammates to fight by your side in a Hotblooded Clash!
20211004	1100	20211006	1100	100900	999999	0	0	1	3	-1	0	0	0	0	0	0	0	0	0	0	0	0	0		-1	0	0	0	0	0	0	0	0	0	0	0	0	0		517	150	0	0	0	0	6970	0	2500	0	500	0	30	0	Uncanny Cats(?) from eldritch realms! ★ Tap banner for info!	0	0	4	fr	Chats surnaturels dont une unité légendaire ! ★ Touche pour plus d’infos !	it	Gatti arcani dall'aldilà con un Gatto leggendario misterioso! ★ Tocca il banner!	de	Schaurige Katzen (?) mit mystischer Legende! ★ Tippe auf das Banner!	es	Gatos sobrenaturales (?) ¡y una leyenda misteriosa! ★ ¡Toca para saber más!
20211006	1100	20211008	1100	100900	999999	0	0	1	3	-1	0	0	0	0	0	0	0	0	0	0	0	0	0		-1	0	0	0	0	0	0	0	0	0	0	0	0	0		585	150	0	0	0	0	6970	0	2500	0	500	0	30	0	Spooky beauties from the netherworld! It's the GIRLS & MONSTERS!	0	0	4	fr	Beautés inquiétantes venues de l’au-delà ! C’est Les filles et les monstres !	it	Bellezze spettrali dall'oltretomba! RAGAZZE E MOSTRI in arrivo!	de	Gespenstische Schönheiten aus dem Jenseits! MÄDCHEN & MONSTER!	es	Bellezas escalofriantes del inframundo: ¡Chicas y Monstruos!
20211008	1100	20211011	1100	100900	999999	0	0	1	1	595	150	0	0	0	0	7000	0	2500	0	500	0	0	0	New Heroes appear to celebrate 7 Years! ★ Tap banner for info!	4	fr	De nouveaux héros arrivent pour fêter les 7 ans ! ★ Touche pour plus d’infos !	it	Arrivano dei nuovi eroi per festeggiare 7 anni! ★ Tocca il banner!	de	Neue Helden erscheinen, um 7 Jahre zu feiern! ★ Tippe auf das Banner!	es	Llegan nuevos héroes para celebrar los 7 años. ★ ¡Toca para saber más!
20211008	1100	20211011	1100	100900	999999	0	0	1	3	-1	0	0	0	0	0	0	0	0	0	0	0	0	0		-1	0	0	0	0	0	0	0	0	0	0	0	0	0		424	150	0	0	0	0	6970	0	2500	0	500	0	30	0	A wacky variety set of mighty Uber Cats! ★ Tap banner for info!	0	0	4	fr	Des ultra rares aussi dingues que puissants ! ★ Touche pour plus d’infos !	it	Un set bizzarro di potenti Ultra Gatti! ★ Tocca il banner!	de	Eine verrückte Auswahl mächtiger Megakatzen! ★ Tippe auf das Banner!	es	¡Una serie de poderosos gatos megarraros! ★ ¡Toca para saber más!
20211011	1100	20211015	1100	100900	999999	0	0	1	1	601	150	0	0	0	0	6970	0	2500	0	500	0	30	0	7 Year Celebration: Excellent Selection! ★ Tap banner for info!	4	fr	Célébration des 7 ans : excellent choix ! ★ Touche pour plus d’infos !	it	Festeggiamo 7 anni: Selezione eccellente! ★ Tocca il banner!	de	7-Jahres-Feier: Exzellente Auswahl! ★ Tippe auf das Banner!	es	Celebración de los 7 años: ¡Gran selección! ★ ¡Toca para saber más!
20211011	1100	20211013	1100	100900	999999	0	0	1	3	-1	0	0	0	0	0	0	0	0	0	0	0	0	0		-1	0	0	0	0	0	0	0	0	0	0	0	0	0		538	150	0	0	0	0	6970	0	2500	0	500	0	30	0	★ Elemental Pixies ★ Cosmic powers brought to life, with a mystery elemental!	0	0	4	fr	★ Farfadets élémentaires ★ Pouvoir cosmique et élémentaire mystère !	it	★ Fate elementali ★ Poteri cosmici portati in vita con un elementale misterioso!	de	★ Elementfeen ★ Kosmische Kraft zum Leben erweckt & mystischer Elementar!	es	★ Hadas Elementales ★ ¡Poderes cósmicos con un elemental misterioso!
20211013	1100	20211015	1100	100900	999999	0	0	1	3	-1	0	0	0	0	0	0	0	0	0	0	0	0	0		-1	0	0	0	0	0	0	0	0	0	0	0	0	0		433	150	0	0	0	0	6970	0	2500	0	500	0	30	0	Ancient dragons of unmatched might! ★ Tap banner for info!	0	0	4	fr	Dragons anciens à la puissance inégalée ! ★ Touche pour plus d’infos !	it	Draghi antichi dalla potenza ineguagliabile! ★ Tocca il banner!	de	Uralte Drachen mit unvergleichlicher Macht! ★ Tippe auf das Banner!	es	¡Dragones antiguos de un poder inigualable! ★ ¡Toca para saber más!
[end]
