[start]
20180109	1100	20300101	1100	50700	999999	0	0	0	1	0	0	0	0	10000	0	0	0	0	0	0	0	0	0	
20170101	0	20300101	0	80200	999999	0	0	2	3	0	30	0	0	0	0	7500	0	2000	0	500	0	0	0		0	30	0	0	0	0	7500	0	2000	0	500	0	0	0		0	30	0	0	0	0	7500	0	2000	0	500	0	0	0	
20170101	0	20300101	0	80200	999999	0	0	3	3	0	75	0	0	0	0	7500	0	2000	0	500	0	0	0		0	75	0	0	0	0	7500	0	2000	0	500	0	0	0		0	75	0	0	0	0	7500	0	2000	0	500	0	0	0	
20210503	1100	20300101	0	100400	999999	0	0	0	3	-1	0	0	0	0	0	0	0	0	0	0	0	0	0		-1	0	0	0	0	0	0	0	0	0	0	0	0	0		62	0	0	0	0	0	7400	0	2100	0	500	0	0	0	【Limited】 Collect Li'l Cats only during this event!	0	0	4	fr	【Durée limitée】 P’tits Chats uniquement dans cet événement !	it	【Limitato】 Ottieni Mini Gatti solo in questo evento! 	de	(Begrenzt) Sammle nur während dieses Events kleine Katzen!	es	[Exclusivo] ¡Consigue Minigatos solo en este evento!
20210416	1100	20300101	0	100400	999999	0	0	0	4	-1	0	0	0	0	0	0	0	0	0	0	0	0	0		-1	0	0	0	0	0	0	0	0	0	0	0	0	0		-1	0	0	0	0	0	0	0	0	0	0	0	0	0		63	0	300	0	0	0	5100	0	3500	0	1400	0	0	0	【Limited Event】 Special chance for XP and Catamins!	0	0	0	4	fr	【Durée limitée】 Chance spéciale d’obtenir XP et vichamines ! 	it	【Evento limitato】 Occasione speciale per XP e Vitamiao! 	de	(Begrenztes Event) Sonderchance auf XP und Katzamine! 	es	[Evento exclusivo] ¡Probabilidad de ganar XP y gataminas!
20211022	1100	20300101	1100	100900	999999	0	0	1	4	-1	0	0	0	0	0	0	0	0	0	0	0	0	0		-1	0	0	0	0	0	0	0	0	0	0	0	0	0		-1	0	0	0	0	0	0	0	0	0	0	0	0	0		617	0	0	0	0	0	0	0	0	0	10000	0	0	0	Get an Uber Rare Cat!! 100% Uber drop Rate in the PLATINUM CAPSULES!	0	0	0	4	fr	Obtiens un ultra rare ! 100 % de chances avec les Chapsules platine !	it	Ottieni un gatto ultra raro! 100% possibilità di Ultra nelle CAPSULE PLATINO!	de	Hol dir eine megaseltene Katze!! 100-%-Chance in den PLATINKAPSELN!	es	¡Gana un gato megarraro! Garantizado en las BOLAS DE PLATINO.
20211105	1100	20300101	1100	101000	999999	0	0	1	4	-1	0	0	0	0	0	0	0	0	0	0	0	0	0		-1	0	0	0	0	0	0	0	0	0	0	0	0	0		-1	0	0	0	0	0	0	0	0	0	0	0	0	0		635	0	0	0	0	0	0	0	0	0	10000	0	0	0	Get an Uber Rare Cat!! 100% Uber drop Rate in the PLATINUM CAPSULES!	0	0	0	4	fr	Obtiens un ultra rare ! 100 % de chances avec les Chapsules platine !	it	Ottieni un gatto ultra raro! 100% possibilità di Ultra nelle CAPSULE PLATINO!	de	Hol dir eine megaseltene Katze!! 100-%-Chance in den PLATINKAPSELN!	es	¡Gana un gato megarraro! Garantizado en las BOLAS DE PLATINO.
20211119	1100	20300101	1100	101000	999999	0	0	1	4	-1	0	0	0	0	0	0	0	0	0	0	0	0	0		-1	0	0	0	0	0	0	0	0	0	0	0	0	0		-1	0	0	0	0	0	0	0	0	0	0	0	0	0		636	0	0	0	0	0	0	0	0	0	10000	0	0	0	Get an Uber Rare Cat!! 100% Uber drop Rate in the PLATINUM CAPSULES!	0	0	0	4	fr	Obtiens un ultra rare ! 100 % de chances avec les Chapsules platine !	it	Ottieni un gatto ultra raro! 100% possibilità di Ultra nelle CAPSULE PLATINO!	de	Hol dir eine megaseltene Katze!! 100-%-Chance in den PLATINKAPSELN!	es	¡Gana un gato megarraro! Garantizado en las BOLAS DE PLATINO.
20211122	1100	20300101	1100	101000	999999	0	0	1	5	-1	0	0	0	0	0	0	0	0	0	0	0	0	0		-1	0	0	0	0	0	0	0	0	0	0	0	0	0		-1	0	0	0	0	0	0	0	0	0	0	0	0	0		-1	0	0	0	0	0	0	0	0	0	0	0	0	0		639	0	0	0	0	0	0	0	0	0	9500	0	500	0	Get a Guaranteed Uber or Legend Rare from the Legend Capsules!	0	0	0	0	4	fr	Un ultra rare ou un légendaire garanti dans les Chapsules légendaires !	it	Ottieni un'unità ultra rara o leggendaria garantita dalle Capsule leggendarie!	de	Garantiert eine mega- oder legendär seltene Katze aus legendären Kapseln!	es	¡Una unidad megarrara o legendaria garantizada en las bolas legendarias!
20211126	1100	20300101	1100	101000	999999	0	0	1	4	-1	0	0	0	0	0	0	0	0	0	0	0	0	0		-1	0	0	0	0	0	0	0	0	0	0	0	0	0		-1	0	0	0	0	0	0	0	0	0	0	0	0	0		637	0	0	0	0	0	0	0	0	0	10000	0	0	0	Get an Uber Rare Cat!! 100% Uber drop Rate in the PLATINUM CAPSULES!	0	0	0	4	fr	Obtiens un ultra rare ! 100 % de chances avec les Chapsules platine !	it	Ottieni un gatto ultra raro! 100% possibilità di Ultra nelle CAPSULE PLATINO!	de	Hol dir eine megaseltene Katze!! 100-%-Chance in den PLATINKAPSELN!	es	¡Gana un gato megarraro! Garantizado en las BOLAS DE PLATINO.
20211126	1100	20300101	1100	101000	999999	0	0	1	5	-1	0	0	0	0	0	0	0	0	0	0	0	0	0		-1	0	0	0	0	0	0	0	0	0	0	0	0	0		-1	0	0	0	0	0	0	0	0	0	0	0	0	0		-1	0	0	0	0	0	0	0	0	0	0	0	0	0		640	0	0	0	0	0	0	0	0	0	9500	0	500	0	Get a Guaranteed Uber or Legend Rare from the Legend Capsules!	0	0	0	0	4	fr	Un ultra rare ou un légendaire garanti dans les Chapsules légendaires !	it	Ottieni un'unità ultra rara o leggendaria garantita dalle Capsule leggendarie!	de	Garantiert eine mega- oder legendär seltene Katze aus legendären Kapseln!	es	¡Una unidad megarrara o legendaria garantizada en las bolas legendarias!
20211224	1100	20300101	1100	110000	999999	0	0	1	4	-1	0	0	0	0	0	0	0	0	0	0	0	0	0		-1	0	0	0	0	0	0	0	0	0	0	0	0	0		-1	0	0	0	0	0	0	0	0	0	0	0	0	0		655	0	0	0	0	0	0	0	0	0	9500	0	500	0	Get a Guaranteed Uber or Legend Rare from the Legend Capsules!	0	0	0	4	fr	Un ultra rare ou un légendaire garanti dans les Chapsules légendaires !	it	Ottieni un'unità ultra rara o leggendaria garantita dalle Capsule leggendarie!	de	Garantiert eine mega- oder legendär seltene Katze aus legendären Kapseln!	es	¡Una unidad megarrara o legendaria garantizada en las bolas legendarias!
20211224	1100	20300101	1100	110000	999999	0	0	1	5	-1	0	0	0	0	0	0	0	0	0	0	0	0	0		-1	0	0	0	0	0	0	0	0	0	0	0	0	0		-1	0	0	0	0	0	0	0	0	0	0	0	0	0		-1	0	0	0	0	0	0	0	0	0	0	0	0	0		653	0	0	0	0	0	0	0	0	0	10000	0	0	0	Get an Uber Rare Cat!! 100% Uber drop Rate in the PLATINUM CAPSULES!	0	0	0	0	4	fr	Obtiens un ultra rare ! 100 % de chances avec les Chapsules platine !	it	Ottieni un gatto ultra raro! 100% possibilità di Ultra nelle CAPSULE PLATINO!	de	Hol dir eine megaseltene Katze!! 100-%-Chance in den PLATINKAPSELN!	es	¡Gana un gato megarraro! Garantizado en las BOLAS DE PLATINO.
20220106	1100	20300101	1100	110100	999999	0	0	0	1	64	0	2300	0	10000	0	0	0	0	0	0	0	0	0		4	fr		it		de		es	
20220112	1100	20220114	1100	110000	999999	0	0	1	2	-1	0	0	0	0	0	0	0	0	0	0	0	0	0		630	150	0	16384	0	0	6970	0	2500	0	500	0	30	0	NEW hero Hevijak arises, effective vs Red and Aku! ★Tap banner for info!	0	4	fr	Nouveau Hevijack, efficace contre rouges et Akus ! ★Bannière pour plus d'infos.	it	Appare Hevijak: il NUOVO eroe efficace vs rossi e Aku! ★Tocca il banner!	de	NEUER Held Hevijak, effektiv gegen Rote und Aku! ★ Tippe auf das Banner!	es	Hevijak el Maligno es eficaz contra akus y rojos. ★ ¡Toca para saber más!
20220114	1100	20220117	1100	110000	999999	0	0	1	1	652	150	0	0	0	0	6500	0	2600	0	900	0	0	0	All the Ubers are gathered for EPICFEST, with higher drop rates!	4	fr	Tous les ultra rares sont là pour la Méga-fête, taux d’obt. plus élevés !	it	Gli Ultra sono al FESTIVAL EPICO, con maggiori probabilità di ottenerli!	de	Alle Megaseltenen versammeln sich zum epischen Fest mit höheren Chancen!	es	¡Llega el Hiperfesti, con más probabilidad de conseguir megarraros!
20220117	1100	20220201	000	110100	999999	0	0	0	2	-1	0	0	0	0	0	0	0	0	0	0	0	0	0		5	0	0	2	500	0	7000	0	2000	0	500	0	0	0	★ Limited Capsules ★ Pick up extra Catseyes in this special Capsule set!	0	4	fr	★ Chapsules à durée limitée ★ Plus d’œils-de-chat dans ces Chapsules spéciales !	it	★ Capsule limitate ★ Ottieni Occhio di gatto in questo speciale set capsule!	de	★ Limitierte Kapseln ★ Hol dir zusätzliche Katzenaugen durch dieses Kapselset!	es	★ Bolas exclusivas ★ ¡Consigue más gatojos en esta serie especial de bolas!
20220117	1100	20220121	1100	110100	999999	0	0	1	1	599	150	0	0	0	0	6970	0	2500	0	500	0	30	0	Ultra Selection! ★ Tap banner for info!	4	fr	Ultra rares au choix ! ★ Touche pour plus d’infos !	it	Selezione Ultra! ★ Tocca il banner!	de	Mega-Auswahl! ★ Tippe auf das Banner!	es	¡Ultraselección! ★ ¡Toca para saber más!
20220117	1100	20220119	1100	110100	999999	0	0	1	2	-1	0	0	0	0	0	0	0	0	0	0	0	0	0		608	150	0	16384	0	0	6970	0	2500	0	500	0	30	0	Mighty NEW hero Shiro Amakusa, good against Black & Aku! ★Tap banner for info!	0	4	fr	Nouveau Shiro Amakusa, eff. contre noirs et Akus ! ★Bannière pour plus d'infos.	it	Shiro Amakusa: il NUOVO potente eroe, efficace vs neri e Aku! ★Tocca il banner!	de	NEUER Held Shiro Amakusa, effektiv gg. Schwarz & Aku! ★ Tippe auf das Banner!	es	Amakusa Shiro es eficaz contra akus y enemigos negros. ★ ¡Toca para saber más!
20220119	1100	20220121	1100	110100	999999	0	0	1	2	-1	0	0	0	0	0	0	0	0	0	0	0	0	0		497	150	0	16384	0	0	6970	0	2500	0	500	0	30	0	The Almighties, supreme beings of Catkind! ★ Tap banner for info!	0	4	fr	Les Immortels, êtres suprêmes chez les Chats ! ★ Touche pour plus d’infos !	it	Gli Onnipotenti, esseri supremi di origine felina! ★ Tocca il banner!	de	Die Allmächtigen, die höchsten Wesen der Katzheit! ★ Tippe auf das Banner!	es	¡Los Todopoderosos, seres felinos supremos! ★ ¡Toca para saber más!
20220121	1100	20220124	1100	110100	999999	0	0	1	1	643	150	0	0	0	0	6970	0	2500	0	500	1	30	0	Tear through Zombies/Aku with Mighty Deth-Troy-R! ★ Tap banner for info!	4	fr	Annihile zombies/Akus avec Puissant Dess-truk-teur ★ Touche pour plus d'infos !	it	Sbaraglia zombi/Aku con Deth-Troy-R possente! ★ Tocca il banner!	de	Erledige Zombies/Aku mit dem Mächtigen Zernichter! ★ Tippe auf das Banner!	es	¡Destroza a zombis y akus con Dez-Troyer-R Brutal! ★ ¡Toca para saber más!
20220121	1100	20300101	1100	110100	999999	0	0	1	4	-1	0	0	0	0	0	0	0	0	0	0	0	0	0		-1	0	0	0	0	0	0	0	0	0	0	0	0	0		-1	0	0	0	0	0	0	0	0	0	0	0	0	0		656	0	0	0	0	0	0	0	0	0	9500	0	500	0	Get a Guaranteed Uber or Legend Rare from the Legend Capsules!	0	0	0	4	fr	Un ultra rare ou un légendaire garanti dans les Chapsules légendaires !	it	Ottieni un'unità ultra rara o leggendaria garantita dalle Capsule leggendarie!	de	Garantiert eine mega- oder legendär seltene Katze aus legendären Kapseln!	es	¡Una unidad megarrara o legendaria garantizada en las bolas legendarias!
20220121	1100	20300101	1100	110100	999999	0	0	1	5	-1	0	0	0	0	0	0	0	0	0	0	0	0	0		-1	0	0	0	0	0	0	0	0	0	0	0	0	0		-1	0	0	0	0	0	0	0	0	0	0	0	0	0		-1	0	0	0	0	0	0	0	0	0	0	0	0	0		654	0	0	0	0	0	0	0	0	0	10000	0	0	0	Get an Uber Rare Cat!! 100% Uber drop Rate in the PLATINUM CAPSULES!	0	0	0	0	4	fr	Obtiens un ultra rare ! 100 % de chances avec les Chapsules platine !	it	Ottieni un gatto ultra raro! 100% possibilità di Ultra nelle CAPSULE PLATINO!	de	Hol dir eine megaseltene Katze!! 100-%-Chance in den PLATINKAPSELN!	es	¡Gana un gato megarraro! Garantizado en las BOLAS DE PLATINO.
20220124	1100	20220128	1100	110100	999999	0	0	1	1	600	150	0	0	0	0	6970	0	2500	0	500	0	30	0	Miracle Selection! ★ Tap banner for info!	4	fr	Choix miraculeux ! ★ Touche pour plus d’infos !	it	Selezione Miracolo! ★ Tocca il banner!	de	Wunderauswahl! ★ Tippe auf das Banner!	es	¡Selección milagrosa! ★ ¡Toca para saber más!
20220124	1100	20220126	1100	110100	999999	0	0	1	2	-1	0	0	0	0	0	0	0	0	0	0	0	0	0		624	150	0	16384	0	0	6970	0	2500	0	500	0	30	0	NEW Barrier and Shield destroying hero Furiluga appears! ★Tap banner for info!	0	4	fr	Nouvel anti-barrières et boucliers Furiluga ! ★Bannière pour plus d'infos.	it	Arriva Furiluga: il NUOVO eroe che distrugge barriere e scudi! ★Tocca il banner!	de	NEUER Barrieren- und Schilde-zerstörender Held Furiluga! ★ Tippe auf das Banner!	es	El nuevo héroe, Furiluga, rompe barreras y escudos. ★ ¡Toca para saber más!
20220126	1100	20220128	1100	110100	999999	0	0	1	2	-1	0	0	0	0	0	0	0	0	0	0	0	0	0		611	150	0	16384	0	0	6970	0	2500	0	500	0	30	0	New Hero LILIN joins the fight to crush the Aku! ★ Tap for more info!	0	4	fr	Le nouveau héros LILIN vient combattre les Akus ! ★ Touche pour plus d’infos !	it	LILIN vuole contribuire a distruggere gli Aku! ★ Tocca per saperne di più!	de	Die neue Heldin LILIN ist da, um die Aku zu besiegen! ★ Tippe für mehr Info!	es	La nueva heroína LILIN se une a la lucha contra los akus. ★ Toca para saber más.
20220128	1100	20220201	000	110100	999999	0	0	1	1	594	150	0	0	0	0	7000	0	2500	0	500	0	0	0	Limited Uber Set, with Li'l Valkyrie! ★ Tap banner for info!	4	fr	Ultra rares à durée limitée avec P’tite Chalkyrie ! ★ Touche pour plus d’infos !	it	Set ultra limitato con Baby Valchiria! ★ Tocca il banner!	de	Limitiertes Megaset mit kleiner Walküre! ★ Tippe auf das Banner!	es	Serie exclusiva de megarraros con Minivalquiria.  ★ ¡Toca para saber más!
20220128	1100	20220201	000	110100	999999	0	0	1	2	-1	0	0	0	0	0	0	0	0	0	0	0	0	0		627	150	0	16384	0	0	6970	0	2500	0	500	0	30	0	NEW hero Summoner Satoru, effective vs Aku! ★Tap banner for info!	0	4	fr	Nouveau Satoru invocateur, efficace contre Akus ! ★Bannière pour plus d'infos.	it	Satoru invocatore: il NUOVO eroe efficace vs Aku! ★Tocca il banner!	de	NEUER Held Beschwörer Satoru, effektiv gg. Aku! ★ Tippe auf das Banner!	es	El nuevo héroe, Invocador Satoru, es eficaz contra akus. ★ ¡Toca para saber más!
[end]
