[start]
20180109	1100	20300101	1100	50700	999999	0	0	0	1	0	0	0	0	10000	0	0	0	0	0	0	0	0	0	
20170101	0	20300101	0	80200	999999	0	0	2	3	0	30	0	0	0	0	7500	0	2000	0	500	0	0	0		0	30	0	0	0	0	7500	0	2000	0	500	0	0	0		0	30	0	0	0	0	7500	0	2000	0	500	0	0	0	
20170101	0	20300101	0	80200	999999	0	0	3	3	0	75	0	0	0	0	7500	0	2000	0	500	0	0	0		0	75	0	0	0	0	7500	0	2000	0	500	0	0	0		0	75	0	0	0	0	7500	0	2000	0	500	0	0	0	
20210503	1100	20300101	0	100400	999999	0	0	0	3	-1	0	0	0	0	0	0	0	0	0	0	0	0	0		-1	0	0	0	0	0	0	0	0	0	0	0	0	0		62	0	0	0	0	0	7400	0	2100	0	500	0	0	0	【Limited】 Collect Li'l Cats only during this event!	0	0	4	fr	【Durée limitée】 P’tits Chats uniquement dans cet événement !	it	【Limitato】 Ottieni Mini Gatti solo in questo evento! 	de	(Begrenzt) Sammle nur während dieses Events kleine Katzen!	es	[Exclusivo] ¡Consigue Minigatos solo en este evento!
20210416	1100	20300101	0	100400	999999	0	0	0	4	-1	0	0	0	0	0	0	0	0	0	0	0	0	0		-1	0	0	0	0	0	0	0	0	0	0	0	0	0		-1	0	0	0	0	0	0	0	0	0	0	0	0	0		63	0	300	0	0	0	5100	0	3500	0	1400	0	0	0	【Limited Event】 Special chance for XP and Catamins!	0	0	0	4	fr	【Durée limitée】 Chance spéciale d’obtenir XP et vichamines ! 	it	【Evento limitato】 Occasione speciale per XP e Vitamiao! 	de	(Begrenztes Event) Sonderchance auf XP und Katzamine! 	es	[Evento exclusivo] ¡Probabilidad de ganar XP y gataminas!
20220106	1100	20300101	1100	110100	999999	0	0	0	1	64	0	2300	0	10000	0	0	0	0	0	0	0	0	0		4	fr		it		de		es	
20220527	1100	20300101	1100	110400	999999	0	0	1	4	-1	0	0	0	0	0	0	0	0	0	0	0	0	0		-1	0	0	0	0	0	0	0	0	0	0	0	0	0		-1	0	0	0	0	0	0	0	0	0	0	0	0	0		723	0	0	0	0	0	0	0	0	0	9500	0	500	0	Get a Guaranteed Uber or Legend Rare from the Legend Capsules!	0	0	0	4	fr	Un ultra rare ou un légendaire garanti dans les Chapsules légendaires !	it	Ottieni un'unità ultra rara o leggendaria garantita dalle Capsule leggendarie!	de	Garantiert eine mega- oder legendär seltene Katze aus legendären Kapseln!	es	¡Una unidad megarrara o legendaria garantizada en las bolas legendarias!
20220527	1100	20300101	1100	110400	999999	0	0	1	5	-1	0	0	0	0	0	0	0	0	0	0	0	0	0		-1	0	0	0	0	0	0	0	0	0	0	0	0	0		-1	0	0	0	0	0	0	0	0	0	0	0	0	0		-1	0	0	0	0	0	0	0	0	0	0	0	0	0		722	0	0	0	0	0	0	0	0	0	10000	0	0	0	Get an Uber Rare Cat!! 100% Uber drop Rate in the PLATINUM CAPSULES!	0	0	0	0	4	fr	Obtiens un ultra rare ! 100 % de chances avec les Chapsules platine !	it	Ottieni un gatto ultra raro! 100% possibilità di Ultra nelle CAPSULE PLATINO!	de	Hol dir eine megaseltene Katze!! 100-%-Chance in den PLATINKAPSELN!	es	¡Gana un gato megarraro! Garantizado en las BOLAS DE PLATINO.
20220715	1100	20300101	1100	110600	999999	0	0	1	4	-1	0	0	0	0	0	0	0	0	0	0	0	0	0		-1	0	0	0	0	0	0	0	0	0	0	0	0	0		-1	0	0	0	0	0	0	0	0	0	0	0	0	0		730	0	0	0	0	0	0	0	0	0	9500	0	500	0	Get a Guaranteed Uber or Legend Rare from the Legend Capsules!	0	0	0	4	fr	Un ultra rare ou un légendaire garanti dans les Chapsules légendaires !	it	Ottieni un'unità ultra rara o leggendaria garantita dalle Capsule leggendarie!	de	Garantiert eine mega- oder legendär seltene Katze aus legendären Kapseln!	es	¡Una unidad megarrara o legendaria garantizada en las bolas legendarias!
20220715	1100	20300101	1100	110600	999999	0	0	1	5	-1	0	0	0	0	0	0	0	0	0	0	0	0	0		-1	0	0	0	0	0	0	0	0	0	0	0	0	0		-1	0	0	0	0	0	0	0	0	0	0	0	0	0		-1	0	0	0	0	0	0	0	0	0	0	0	0	0		729	0	0	0	0	0	0	0	0	0	10000	0	0	0	Get an Uber Rare Cat!! 100% Uber drop Rate in the PLATINUM CAPSULES!	0	0	0	0	4	fr	Obtiens un ultra rare ! 100 % de chances avec les Chapsules platine !	it	Ottieni un gatto ultra raro! 100% possibilità di Ultra nelle CAPSULE PLATINO!	de	Hol dir eine megaseltene Katze!! 100-%-Chance in den PLATINKAPSELN!	es	¡Gana un gato megarraro! Garantizado en las BOLAS DE PLATINO.
20220802	1100	20300101	1100	110700	999999	0	0	1	4	-1	0	0	0	0	0	0	0	0	0	0	0	0	0		-1	0	0	0	0	0	0	0	0	0	0	0	0	0		-1	0	0	0	0	0	0	0	0	0	0	0	0	0		736	0	0	0	0	0	0	0	0	0	9500	0	500	0	Get a Guaranteed Uber or Legend Rare from the Legend Capsules!	0	0	0	4	fr	Un ultra rare ou un légendaire garanti dans les Chapsules légendaires !	it	Ottieni un'unità ultra rara o leggendaria garantita dalle Capsule leggendarie!	de	Garantiert eine mega- oder legendär seltene Katze aus legendären Kapseln!	es	¡Una unidad megarrara o legendaria garantizada en las bolas legendarias!
20220802	1100	20300101	1100	110700	999999	0	0	1	5	-1	0	0	0	0	0	0	0	0	0	0	0	0	0		-1	0	0	0	0	0	0	0	0	0	0	0	0	0		-1	0	0	0	0	0	0	0	0	0	0	0	0	0		-1	0	0	0	0	0	0	0	0	0	0	0	0	0		735	0	0	0	0	0	0	0	0	0	10000	0	0	0	Get an Uber Rare Cat!! 100% Uber drop Rate in the PLATINUM CAPSULES!	0	0	0	0	4	fr	Obtiens un ultra rare ! 100 % de chances avec les Chapsules platine !	it	Ottieni un gatto ultra raro! 100% possibilità di Ultra nelle CAPSULE PLATINO!	de	Hol dir eine megaseltene Katze!! 100-%-Chance in den PLATINKAPSELN!	es	¡Gana un gato megarraro! Garantizado en las BOLAS DE PLATINO.
20220826	1100	20300101	1100	110700	999999	0	0	1	4	-1	0	0	0	0	0	0	0	0	0	0	0	0	0		-1	0	0	0	0	0	0	0	0	0	0	0	0	0		-1	0	0	0	0	0	0	0	0	0	0	0	0	0		746	0	0	0	0	0	0	0	0	0	9500	0	500	0	Get a Guaranteed Uber or Legend Rare from the Legend Capsules!	0	0	0	4	fr	Un ultra rare ou un légendaire garanti dans les Chapsules légendaires !	it	Ottieni un'unità ultra rara o leggendaria garantita dalle Capsule leggendarie!	de	Garantiert eine mega- oder legendär seltene Katze aus legendären Kapseln!	es	¡Una unidad megarrara o legendaria garantizada en las bolas legendarias!
20220826	1100	20300101	1100	110700	999999	0	0	1	5	-1	0	0	0	0	0	0	0	0	0	0	0	0	0		-1	0	0	0	0	0	0	0	0	0	0	0	0	0		-1	0	0	0	0	0	0	0	0	0	0	0	0	0		-1	0	0	0	0	0	0	0	0	0	0	0	0	0		745	0	0	0	0	0	0	0	0	0	10000	0	0	0	Get an Uber Rare Cat!! 100% Uber drop Rate in the PLATINUM CAPSULES!	0	0	0	0	4	fr	Obtiens un ultra rare ! 100 % de chances avec les Chapsules platine !	it	Ottieni un gatto ultra raro! 100% possibilità di Ultra nelle CAPSULE PLATINO!	de	Hol dir eine megaseltene Katze!! 100-%-Chance in den PLATINKAPSELN!	es	¡Gana un gato megarraro! Garantizado en las BOLAS DE PLATINO.
20221019	1100	20300101	1100	110800	999999	0	0	1	4	-1	0	0	0	0	0	0	0	0	0	0	0	0	0		-1	0	0	0	0	0	0	0	0	0	0	0	0	0		-1	0	0	0	0	0	0	0	0	0	0	0	0	0		756	0	0	0	0	0	0	0	0	0	9500	0	500	0	Get a Guaranteed Uber or Legend Rare from the Legend Capsules!	0	0	0	4	fr	Un ultra rare ou un légendaire garanti dans les Chapsules légendaires !	it	Ottieni un'unità ultra rara o leggendaria garantita dalle Capsule leggendarie!	de	Garantiert eine mega- oder legendär seltene Katze aus legendären Kapseln!	es	¡Una unidad megarrara o legendaria garantizada en las bolas legendarias!
20221019	1100	20300101	1100	110800	999999	0	0	1	5	-1	0	0	0	0	0	0	0	0	0	0	0	0	0		-1	0	0	0	0	0	0	0	0	0	0	0	0	0		-1	0	0	0	0	0	0	0	0	0	0	0	0	0		-1	0	0	0	0	0	0	0	0	0	0	0	0	0		755	0	0	0	0	0	0	0	0	0	10000	0	0	0	Get an Uber Rare Cat!! 100% Uber drop Rate in the PLATINUM CAPSULES!	0	0	0	0	4	fr	Obtiens un ultra rare ! 100 % de chances avec les Chapsules platine !	it	Ottieni un gatto ultra raro! 100% possibilità di Ultra nelle CAPSULE PLATINO!	de	Hol dir eine megaseltene Katze!! 100-%-Chance in den PLATINKAPSELN!	es	¡Gana un gato megarraro! Garantizado en las BOLAS DE PLATINO.
20230126	1100	20300101	000	120000	999999	0	0	1	4	-1	0	0	0	0	0	0	0	0	0	0	0	0	0		-1	0	0	0	0	0	0	0	0	0	0	0	0	0		-1	0	0	0	0	0	0	0	0	0	0	0	0	0		775	0	0	0	0	0	0	0	0	0	9500	0	500	0	Get a Guaranteed Uber or Legend Rare from the Legend Capsules!	0	0	0	4	fr	Un ultra rare ou un légendaire garanti dans les Chapsules légendaires !	it	Ottieni un'unità ultra rara o leggendaria garantita dalle Capsule leggendarie!	de	Garantiert eine mega- oder legendär seltene Katze aus legendären Kapseln!	es	¡Una unidad megarrara o legendaria garantizada en las bolas legendarias!
20230126	1100	20300101	000	120000	999999	0	0	1	5	-1	0	0	0	0	0	0	0	0	0	0	0	0	0		-1	0	0	0	0	0	0	0	0	0	0	0	0	0		-1	0	0	0	0	0	0	0	0	0	0	0	0	0		-1	0	0	0	0	0	0	0	0	0	0	0	0	0		774	0	0	0	0	0	0	0	0	0	10000	0	0	0	Get an Uber Rare Cat!! 100% Uber drop Rate in the PLATINUM CAPSULES!	0	0	0	0	4	fr	Obtiens un ultra rare ! 100 % de chances avec les Chapsules platine !	it	Ottieni un gatto ultra raro! 100% possibilità di Ultra nelle CAPSULE PLATINO!	de	Hol dir eine megaseltene Katze!! 100-%-Chance in den PLATINKAPSELN!	es	¡Gana un gato megarraro! Garantizado en las BOLAS DE PLATINO.
20230217	1100	20300101	000	120100	999999	0	0	1	4	-1	0	0	0	0	0	0	0	0	0	0	0	0	0		-1	0	0	0	0	0	0	0	0	0	0	0	0	0		-1	0	0	0	0	0	0	0	0	0	0	0	0	0		783	0	0	0	0	0	0	0	0	0	9500	0	500	0	Get a Guaranteed Uber or Legend Rare from the Legend Capsules!	0	0	0	4	fr	Un ultra rare ou un légendaire garanti dans les Chapsules légendaires !	it	Ottieni un'unità ultra rara o leggendaria garantita dalle Capsule leggendarie!	de	Garantiert eine mega- oder legendär seltene Katze aus legendären Kapseln!	es	¡Una unidad megarrara o legendaria garantizada en las bolas legendarias!
20230217	1100	20300101	000	120100	999999	0	0	1	5	-1	0	0	0	0	0	0	0	0	0	0	0	0	0		-1	0	0	0	0	0	0	0	0	0	0	0	0	0		-1	0	0	0	0	0	0	0	0	0	0	0	0	0		-1	0	0	0	0	0	0	0	0	0	0	0	0	0		782	0	0	0	0	0	0	0	0	0	10000	0	0	0	Get an Uber Rare Cat!! 100% Uber drop Rate in the PLATINUM CAPSULES!	0	0	0	0	4	fr	Obtiens un ultra rare ! 100 % de chances avec les Chapsules platine !	it	Ottieni un gatto ultra raro! 100% possibilità di Ultra nelle CAPSULE PLATINO!	de	Hol dir eine megaseltene Katze!! 100-%-Chance in den PLATINKAPSELN!	es	¡Gana un gato megarraro! Garantizado en las BOLAS DE PLATINO.
20230227	1100	20230313	1100	120100	999999	0	0	1	1	414	150	0	16384	0	0	7000	0	2500	0	500	0	0	0	Limited Capsules with ONLY Merc Storia heroes!	4	fr	Limited Capsules with ONLY Merc Storia heroes!	it	Limited Capsules with ONLY Merc Storia heroes!	de	Limited Capsules with ONLY Merc Storia heroes!	es	Limited Capsules with ONLY Merc Storia heroes!
20230303	1100	20230313	1100	120100	999999	0	0	1	2	-1	0	0	0	0	0	0	0	0	0	0	0	0	0		414	150	0	16384	0	0	7000	0	2500	0	500	0	0	0	Limited Capsules with ONLY Merc Storia heroes!	0	4	fr	Limited Capsules with ONLY Merc Storia heroes!	it	Limited Capsules with ONLY Merc Storia heroes!	de	Limited Capsules with ONLY Merc Storia heroes!	es	Limited Capsules with ONLY Merc Storia heroes!
20230308	1100	20230310	1100	120100	999999	0	0	1	2	-1	0	0	0	0	0	0	0	0	0	0	0	0	0		732	150	0	16384	0	0	6970	0	2500	0	500	0	30	0	Colossus Slayer Daliasan joins the fight! Tap banner for info!	0	4	fr	Daliasan, fléau des colosses, rejoint la bataille ! Touche pour plus d'infos !	it	L'ammazzagiganti Daliasan scende in campo! Tocca il banner!	de	Kolosstöter „Daliasan“ tritt dem Kampf bei! Tippe auf das Banner!	es	¡Daliasan matacolosos se une a la lucha! ¡Toca para saber más!
20230310	1100	20230313	1100	120100	999999	0	0	1	1	789	150	0	0	0	0	6970	0	2500	0	500	1	30	0	Mighty new hero "Issun Boshi" joins the ancient heroes! ★ Tap banner for info!	4	fr	Le héros puissant Issun Boshi rejoint les anciens ! ★ Touche pour plus d’infos !	it	Il nuovo eroe Issun Boshi si unisce agli Eroi antichi! ★ Tocca il banner!	de	Der neue Held „Issun Boshi“ tritt den uralten bei! ★ Tippe auf das Banner!	es	¡El nuevo héroe «Issun Boshi» se une a héroes antiguos! ★ ¡Toca para saber más!
20230310	1100	20300101	000	120100	999999	0	0	1	4	-1	0	0	0	0	0	0	0	0	0	0	0	0	0		-1	0	0	0	0	0	0	0	0	0	0	0	0	0		-1	0	0	0	0	0	0	0	0	0	0	0	0	0		794	0	0	0	0	0	0	0	0	0	9500	0	500	0	Get a Guaranteed Uber or Legend Rare from the Legend Capsules!	0	0	0	4	fr	Un ultra rare ou un légendaire garanti dans les Chapsules légendaires !	it	Ottieni un'unità ultra rara o leggendaria garantita dalle Capsule leggendarie!	de	Garantiert eine mega- oder legendär seltene Katze aus legendären Kapseln!	es	¡Una unidad megarrara o legendaria garantizada en las bolas legendarias!
20230310	1100	20300101	000	120100	999999	0	0	1	5	-1	0	0	0	0	0	0	0	0	0	0	0	0	0		-1	0	0	0	0	0	0	0	0	0	0	0	0	0		-1	0	0	0	0	0	0	0	0	0	0	0	0	0		-1	0	0	0	0	0	0	0	0	0	0	0	0	0		793	0	0	0	0	0	0	0	0	0	10000	0	0	0	Get an Uber Rare Cat!! 100% Uber drop Rate in the PLATINUM CAPSULES!	0	0	0	0	4	fr	Obtiens un ultra rare ! 100 % de chances avec les Chapsules platine !	it	Ottieni un gatto ultra raro! 100% possibilità di Ultra nelle CAPSULE PLATINO!	de	Hol dir eine megaseltene Katze!! 100-%-Chance in den PLATINKAPSELN!	es	¡Gana un gato megarraro! Garantizado en las BOLAS DE PLATINO.
20230310	1100	20230313	1100	120100	999999	0	0	1	2	-1	0	0	0	0	0	0	0	0	0	0	0	0	0		414	150	0	0	0	0	7000	0	2500	0	500	1	0	0	Limited Capsules with ONLY Merc Storia heroes!	0	4	fr	Limited Capsules with ONLY Merc Storia heroes!	it	Limited Capsules with ONLY Merc Storia heroes!	de	Limited Capsules with ONLY Merc Storia heroes!	es	Limited Capsules with ONLY Merc Storia heroes!
20230313	1100	20230411	000	120100	999999	0	0	4	1	23	0	0	0	1000	0	4000	0	2000	0	3000	1	0	0	【Heartbeat Catcademy】Trade Love Letters for Limited Capsule draws, thru 4/10!	Draw 	 more times for a 100% chance at 1 of 4 limited units!	4	fr	【Chacadémie】 Échange des lettres d'amour contre des Chapsules jusqu'au 04/10 !	Ouvre encore +	 fois pour 100 % d'obt. 1 unité à durée limitée sur 4 !	it	【Miaoccademia Batticuore】Scambia lettere per sorteggi di capsule fino all'10/04!	Sorteggia altre	 volte per il 100% di possib. di ottenere 1 di 4 unità limitate!	de	(Herzklopfen-Katzkademie) Tausche bis 10.04. Liebesbriefe gg. Limit.-Kapsel-Ziehungen!	Ziehe Noch	-mal, bis 1 von 4 limit. Einheiten garantiert ist!	es	[Gatacademia de Latidos] Hasta el 10/4, ¡canjea cartas de amor para abrir bolas!	Abre ¡	 veces para 100% posib. de conseguir 1 de las 4 unid. limitadas!
20230313	1100	20230315	1100	120100	999999	0	0	1	2	-1	0	0	0	0	0	0	0	0	0	0	0	0	0		761	150	0	16384	0	0	6970	0	2500	0	500	0	30	0	New Colossus Slayer Spectral Goth Vega added! Tap banner for details!	0	4	fr	Nouveau Fléau des colosses Déesse spectrale Véga ! Touche la bannière !	it	Nuova ammazzagiganti: Vega gotica spettrale! Tocca il banner per dettagli!	de	Neuer Kolosstöter Spektralgrufti Vega hinzugefügt! Tippe auf das Banner!	es	¡Nueva Gótica espectral Vega matacolosos añadida! ¡Toca para ver los detalles!
20230313	1100	20230315	1100	120100	999999	0	0	1	3	-1	0	0	0	0	0	0	0	0	0	0	0	0	0		-1	0	0	0	0	0	0	0	0	0	0	0	0	0		695	150	0	16384	0	0	6970	0	2500	0	500	0	30	0	Take down Colossal prey with NEW hero Huntress Terun! ★ Tap for info!	0	0	4	fr	Abats les colosses avec Terun chasseresse ! ★ Touche pour des infos	it	Elimina nemici giganti con la NUOVA unità Terun cacciatrice! ★ Tocca per info!	de	Vernichte kolossale Ziele: NEUE Heldin „Jägerin Terun“! ★ Tippe für mehr Info!	es	¡Derrota a presas colosales con Terun Cazadora! ★ ¡Toca para saber más!
20230315	1100	20230317	1100	120100	999999	0	0	1	2	-1	0	0	0	0	0	0	0	0	0	0	0	0	0		662	150	0	16384	0	0	6970	0	2500	0	500	0	30	0	Slay Aku & Aliens with White Knight Cyclops! ★ Tap banner for info!	0	4	fr	Élimine Akus/aliens avec Cyclope chevalier blanc ! ★ Touche pour plus d'infos !	it	Uccidi Aku e alieni con il Cavaliere bianco ciclope! ★ Tocca il banner!	de	Töte Aku & Aliens mit dem Weißer-Ritter-Zyklop! ★ Tippe auf das Banner!	es	¡Acaba con álienes y akus con Cíclope Caballero Blanco! ★ ¡Toca para saber más!
20230315	1100	20230317	1100	120100	999999	0	0	1	3	-1	0	0	0	0	0	0	0	0	0	0	0	0	0		-1	0	0	0	0	0	0	0	0	0	0	0	0	0		753	150	0	16384	0	0	6970	0	2500	0	500	0	30	0	Colossus Slayer Mighty Carrowsell has been added! Tap the banner for details!	0	0	4	fr	Puissant Charrousel (fléau des colosses)ajouté ! Touche la bannière !	it	Aggiunta l'ammazzagiganti Muggiostra possente! Tocca il banner per dettagli!	de	Der Kolosstöter Mächtiges Karussell wurde hinzugefügt! Tippe auf das Banner!	es	¡Se ha añadido el matacolosos Garrusel brutal! ¡Toca para saber más!
20230317	1100	20230320	1100	120100	999999	0	0	1	1	792	150	0	0	0	0	6500	0	2600	0	900	0	0	0	NEW Iz, Dancer of Grief joins EPICFEST! Plus, increased Uber Rare drop rates!	4	fr	Iz la danseuse du chagrin à la Méga-fête ! Taux d’obtention d'ultra rare élevé !	it	NOVITÀ Iz ballerina del dolore al FESTIVAL EPICO! PIÙ possib. di ultra rare!	de	NEUE „Iz, Tänzerin des Kummers“ b. EPISCHEN FEST! Höhere Chance auf Megaseltene!	es	¡Iz la Bailarina del Dolor se une al HIPERFESTI! Más prob. de gatos megarraros.
20230317	1100	20230320	1100	120100	999999	0	0	1	3	-1	0	0	0	0	0	0	0	0	0	0	0	0	0		-1	0	0	0	0	0	0	0	0	0	0	0	0	0		679	150	0	16384	0	0	6970	0	2500	0	500	0	30	0	Punish Floating and Aku with NEW hero Lucifer the Fallen! ★ Tap for info!	0	0	4	fr	Élimine flottants et Akus avec Lucifer le déchu ! ★ Touche pour des infos	it	Punisci fluttuanti e Aku con il NUOVO eroe Lucifero caduto! ★ Tocca per info!	de	Strafe Fliegende & Aku: NEUER „Luzifer der Gefallene“! ★ Tippe für mehr Info!	es	¡Castiga a akus y voladores con Lucifer el Caído! ★ ¡Toca para saber más!
20230320	1100	20230322	1100	120100	999999	0	0	1	2	-1	0	0	0	0	0	0	0	0	0	0	0	0	0		626	150	0	16384	0	0	6970	0	2500	0	500	0	30	0	NEW Barrier and Shield destroying hero Furiluga appears! ★Tap banner for info!	0	4	fr	Nouvel anti-barrières et boucliers Furiluga ! ★Bannière pour plus d'infos.	it	Arriva Furiluga: il NUOVO eroe che distrugge barriere e scudi! ★Tocca il banner!	de	NEUER Barrieren- und Schilde-zerstörender Held Furiluga! ★ Tippe auf das Banner!	es	El nuevo héroe, Furiluga, rompe barreras y escudos. ★ ¡Toca para saber más!
20230320	1100	20230322	1100	120100	999999	0	0	1	3	-1	0	0	0	0	0	0	0	0	0	0	0	0	0		-1	0	0	0	0	0	0	0	0	0	0	0	0	0		719	150	0	16384	0	0	6970	0	2500	0	500	0	30	0	Colossus Slaying NEW hero Bliza joins the Elemental Pixies! ★ Tap for info!	0	0	4	fr	Bliza, fléau des colosses des Farfadets élémentaires ! ★ Touche pour des infos	it	L'ammazzagiganti Bliza si unisce alle Fate elementali! ★ Tocca per info!	de	Die NEUE Kolosstöter-Heldin „Bliza“ stößt zu den Elementfeen! ★ Tippe für Infos!	es	Ventis matacolosos se une a las Hadas Elementales. ★ ¡Toca para saber más!
20230322	1100	20230324	1100	120100	999999	0	0	1	2	-1	0	0	0	0	0	0	0	0	0	0	0	0	0		742	150	0	16384	0	0	6970	0	2500	0	500	0	30	0	Colossus Slayer Cat Tengu joins the fight! Tap banner for info!	0	4	fr	Chat Tengu, fléau des colosses, rejoint la bataille ! Touche pour plus d'infos !	it	L'ammazzagiganti Gatto Tengu Scende in campo! Tocca il banner!	de	Kolosstöter „Katzen-Tengu“ tritt dem Kampf bei! Tippe auf das Banner!	es	¡Gatengu matacolosos se une a la lucha! ¡Toca para saber más!
20230322	1100	20230324	1100	120100	999999	0	0	1	3	-1	0	0	0	0	0	0	0	0	0	0	0	0	0		-1	0	0	0	0	0	0	0	0	0	0	0	0	0		709	150	0	16384	0	0	6970	0	2500	0	500	0	30	0	Colossus Slayer Hattori Hanzo joins the fight! ★ Tap banner for info!	0	0	4	fr	Hanzo Hattori, Fléau des colosses, rejoint la bataille ! ★ Touche pour info !	it	L'ammazzagiganti Hattori Hanzo scende in campo! ★ Tocca il banner!	de	Kolosstöter „Hattori Hanzo“ tritt dem Kampf bei! ★ Tippe auf das Banner!	es	¡El matacolosos Hattori Hanzo se une al combate! ★ ¡Toca para saber más!
20230324	1100	20230327	1100	120100	999999	0	0	1	2	-1	0	0	0	0	0	0	0	0	0	0	0	0	0		790	150	0	16384	0	0	6970	0	2500	0	500	0	30	0	Mighty new hero "Issun Boshi" joins the ancient heroes! ★ Tap banner for info!	0	4	fr	Le héros puissant Issun Boshi rejoint les anciens ! ★ Touche pour plus d’infos !	it	Il nuovo eroe Issun Boshi si unisce agli Eroi antichi! ★ Tocca il banner!	de	Der neue Held „Issun Boshi“ tritt den uralten bei! ★ Tippe auf das Banner!	es	¡El nuevo héroe «Issun Boshi» se une a héroes antiguos! ★ ¡Toca para saber más!
20230324	1100	20230327	1100	120100	999999	0	0	1	3	-1	0	0	0	0	0	0	0	0	0	0	0	0	0		-1	0	0	0	0	0	0	0	0	0	0	0	0	0		733	150	0	16384	0	0	6970	0	2500	0	500	0	30	0	Colossus Slayer Daliasan joins the fight! Tap banner for info!	0	0	4	fr	Daliasan, fléau des colosses, rejoint la bataille ! Touche pour plus d'infos !	it	L'ammazzagiganti Daliasan scende in campo! Tocca il banner!	de	Kolosstöter „Daliasan“ tritt dem Kampf bei! Tippe auf das Banner!	es	¡Daliasan matacolosos se une a la lucha! ¡Toca para saber más!
[end]
