[start]
20180109	1100	20300101	1100	50700	999999	0	0	0	1	0	0	0	0	10000	0	0	0	0	0	0	0	0	0	
20160101	0	20300101	0	50700	999999	0	0	1	1	0	150	0	0	0	0	7500	0	2000	0	500	0	0	0	只有從這個轉蛋才能拿到的限定角色等著你喔！
20170101	0	20300101	0	50700	999999	0	0	2	2	0	30	0	0	0	0	7500	0	2000	0	500	0	0	0		0	30	0	0	0	0	7500	0	2000	0	500	0	0	0	
20170101	0	20300101	0	50700	999999	0	0	3	2	0	75	0	0	0	0	7500	0	2000	0	500	0	0	0		0	75	0	0	0	0	7500	0	2000	0	500	0	0	0	
20181013	1100	20300101	1100	70400	999999	0	0	1	4	-1	150	0	0	0	0	7500	0	2000	0	500	0	0	0		-1	150	0	0	0	0	7500	0	2000	0	500	0	0	0		-1	150	0	0	0	0	7500	0	2000	0	500	0	0	0		320	0	0	0	0	0	0	0	0	0	10000	0	0	0	必出超激稀有角色的白金轉蛋！快來獲得心儀的貓咪吧！
20190408	1100	20190422	1100	80300	999999	0	0	1	2	-1	150	0	0	0	0	7500	0	2000	0	500	0	0	0		259	150	0	0	0	0	7000	0	2500	0	500	0	0	0	春季限定！快來獲得可愛的復活節貓咪吧！★點圖可以看詳細內容喔！
20190410	1100	20190412	1100	80300	999999	0	0	1	1	351	150	0	0	0	0	7000	0	2500	0	500	0	0	0	來自宇宙盡頭的各種精靈們！★點圖可以看詳細內容喔！
20190412	1100	20190415	1100	80300	999999	0	0	1	1	361	150	0	0	0	0	6500	0	2600	0	900	0	0	0	超強的限定角色「影傑漆黑達太貓」登場！★超激稀有角色出現率大幅上升！
20190415	1100	20190422	1100	80400	999999	0	0	0	2	-1	150	0	0	0	0	7500	0	2000	0	500	0	0	0		3	0	300	0	400	0	2000	0	7000	0	600	0	0	0	限時開放★有機會入手貓薄荷的活動限定特別轉蛋！
20190415	1100	20190417	1100	80400	999999	0	0	1	1	362	150	0	0	0	0	6970	0	2500	0	500	0	30	0	進化後大變身的古代勇者們！神秘角色新登場！？★點圖可以看詳細內容喔！
20190416	1100	20190502	0	80400	999999	0	0	0	3	-1	150	0	0	0	0	7500	0	2000	0	500	0	0	0		-1	150	0	0	0	0	7500	0	2000	0	500	0	0	0		23	0	300	0	0	0	5100	0	3500	0	1400	0	0	0	限時開放★能夠獲得喵力達與XP的特別轉蛋！★5月1日為止！
20190417	1100	20190419	1100	80400	999999	0	0	1	1	330	150	0	0	0	0	6970	0	2500	0	500	1	30	0	掃黑專家的戰國武將來了！神秘角色新登場！？★點圖可以看詳細內容喔！
20190417	1100	20190422	1100	80400	999999	0	0	1	2	-1	150	0	0	0	0	7500	0	2000	0	500	0	0	0		259	150	0	0	0	0	7000	0	2500	0	500	1	0	0	春季限定！快來獲得可愛的復活節貓咪吧！★11連轉超激確定活動中！
20190419	1100	20190422	1100	80400	999999	0	0	1	1	372	150	0	0	0	0	6970	0	2500	0	500	1	30	0	噁心又可愛的神秘生物！神秘角色新登場！？★點圖可以看詳細內容喔！
20190422	1100	20190424	1100	80400	999999	0	0	1	1	333	150	0	0	0	0	6970	0	2500	0	500	0	30	0	可愛有活力的美少女們！神秘角色新登場！？★點圖可以看詳細內容喔！
20190422	1100	20190429	1100	80400	999999	0	0	0	2	-1	150	0	0	0	0	7500	0	2000	0	500	0	0	0		5	0	0	2	500	0	7000	0	2000	0	500	0	0	0	限時開放★高機率獲得各種貓眼石的活動限定特別轉蛋！
20190424	1100	20190426	1100	80400	999999	0	0	1	1	369	150	0	0	0	0	6970	0	2500	0	500	0	30	0	具備各種獨特能力的貓咪們！還有新神秘角色！？★點圖可以看詳細內容喔！
20190426	1100	20190429	1100	80400	999999	0	0	1	1	377	150	0	0	0	0	6970	0	2500	0	500	1	30	0	貓咪軍團珍藏的超級武器！神秘角色新登場！？★點圖可以看詳細內容喔！
20190429	1100	20190501	1100	80400	999999	0	0	1	1	273	150	0	4	0	0	7000	0	2500	0	500	0	0	0	削鐵如泥！有效對抗鋼鐵敵人的角色大集合！★好康轉蛋活動中！
20190501	1100	20190504	1100	80400	999999	0	0	1	1	360	150	0	0	0	0	6500	0	2600	0	900	0	0	0	超強的限定角色「幼傑達太貓」登場！★超激出現率大幅上升！
20190504	1100	20190506	1100	80400	999999	0	0	1	1	245	150	0	4	0	0	7000	0	2500	0	500	0	0	0	紅色破壞者轉蛋限定角色「貓飯拳派派」登場！★好康轉蛋活動中！
[end]
