[start]
20180109	1100	20300101	1100	50700	999999	0	0	0	1	0	0	0	0	10000	0	0	0	0	0	0	0	0	0	
20170101	0	20300101	0	80200	999999	0	0	2	3	0	30	0	0	0	0	7500	0	2000	0	500	0	0	0		0	30	0	0	0	0	7500	0	2000	0	500	0	0	0		0	30	0	0	0	0	7500	0	2000	0	500	0	0	0	
20170101	0	20300101	0	80200	999999	0	0	3	3	0	75	0	0	0	0	7500	0	2000	0	500	0	0	0		0	75	0	0	0	0	7500	0	2000	0	500	0	0	0		0	75	0	0	0	0	7500	0	2000	0	500	0	0	0	
20210503	1100	20300101	0	100400	999999	0	0	0	3	-1	0	0	0	0	0	0	0	0	0	0	0	0	0		-1	0	0	0	0	0	0	0	0	0	0	0	0	0		62	0	0	0	0	0	7400	0	2100	0	500	0	0	0	限時開放！收集小小貓咪的好機會！
20210416	1100	20300101	0	100400	999999	0	0	0	4	-1	0	0	0	0	0	0	0	0	0	0	0	0	0		-1	0	0	0	0	0	0	0	0	0	0	0	0	0		-1	0	0	0	0	0	0	0	0	0	0	0	0	0		63	0	300	0	0	0	5100	0	3500	0	1400	0	0	0	限時開放★能夠獲得喵力達與XP的特別轉蛋！
20220106	1100	20300101	1100	110100	999999	0	0	0	1	64	0	2300	0	10000	0	0	0	0	0	0	0	0	0	
20220527	1100	20300101	1100	110400	999999	0	0	1	4	-1	0	0	0	0	0	0	0	0	0	0	0	0	0		-1	0	0	0	0	0	0	0	0	0	0	0	0	0		-1	0	0	0	0	0	0	0	0	0	0	0	0	0		723	0	0	0	0	0	0	0	0	0	9500	0	500	0	必定可以獲得1隻以上超激稀有角色的「傳說轉蛋」！
20220527	1100	20300101	1100	110400	999999	0	0	1	5	-1	0	0	0	0	0	0	0	0	0	0	0	0	0		-1	0	0	0	0	0	0	0	0	0	0	0	0	0		-1	0	0	0	0	0	0	0	0	0	0	0	0	0		-1	0	0	0	0	0	0	0	0	0	0	0	0	0		722	0	0	0	0	0	0	0	0	0	10000	0	0	0	必出超激稀有角色的白金轉蛋！快來獲得心儀的貓咪吧！
20220701	000	20220708	000	110600	999999	0	0	0	2	-1	0	0	0	0	0	0	0	0	0	0	0	0	0		3	0	300	0	400	0	2000	0	7000	0	600	0	0	0	限時開放★有機會入手貓薄荷的活動限定特別轉蛋！
20220704	1100	20220708	000	110600	999999	0	0	1	1	738	150	0	0	0	0	6970	0	2500	0	500	0	30	0	帶著滿滿感謝的心推出的特別精選轉蛋！★點圖確認詳細吧!!
20220704	1100	20220706	1100	110600	999999	0	0	1	2	-1	0	0	0	0	0	0	0	0	0	0	0	0	0		709	150	0	16384	0	0	6970	0	2500	0	500	0	30	0	有超生命體特效的「服部半藏」參戰！★點圖確認詳細吧!!
20220706	1100	20220708	1100	110600	999999	0	0	1	2	-1	0	0	0	0	0	0	0	0	0	0	0	0	0		659	150	0	16384	0	0	6970	0	2500	0	500	0	30	0	對惡魔與天使很強的「舌切雀」參戰！★點圖確認詳細吧!!
20220708	000	20220715	000	110600	999999	0	0	0	2	-1	0	0	0	0	0	0	0	0	0	0	0	0	0		5	0	0	2	500	0	7000	0	2000	0	500	0	0	0	限時開放★高機率獲得各種貓眼石的活動限定特別轉蛋！
20220708	000	20220711	1100	110600	999999	0	0	1	1	667	150	0	0	0	0	7000	0	2500	0	500	0	0	0	追加多數新角色的「7週年紀念特別版轉蛋」！★點圖確認詳細吧!!
20220711	1100	20220715	1100	110600	999999	0	0	1	1	739	150	0	0	0	0	6970	0	2500	0	500	0	30	0	帶著滿滿感謝的心推出的特別精選轉蛋！★點圖確認詳細吧!!
20220708	1100	20220710	1100	110600	999999	0	0	1	3	-1	0	0	0	0	0	0	0	0	0	0	0	0	0		-1	0	0	0	0	0	0	0	0	0	0	0	0	0		694	150	0	16384	0	0	6970	0	2500	0	500	0	30	0	有超生命體特效的「狩獵女孩媞倫」加入！★點圖確認詳細吧!!
20220710	1100	20220712	1100	110600	999999	0	0	1	3	-1	0	0	0	0	0	0	0	0	0	0	0	0	0		-1	0	0	0	0	0	0	0	0	0	0	0	0	0		628	150	0	16384	0	0	6970	0	2500	0	500	0	30	0	對惡魔屬性很強的「召喚少年小悟」參戰！★點圖確認詳細吧!!
20220712	1100	20220715	1100	110600	999999	0	0	1	3	-1	0	0	0	0	0	0	0	0	0	0	0	0	0		-1	0	0	0	0	0	0	0	0	0	0	0	0	0		661	150	0	16384	0	0	6970	0	2500	0	500	0	30	0	對上惡魔與異星戰士很強的「白騎士庫克洛普斯」參戰！★點圖確認詳細吧!!
[end]
