[start]
20180109	1100	20300101	0	60700	999999	0	0	0	1	0	0	0	0	10000	0	0	0	0	0	0	0	0	0	
20160101	0	20300101	0	50700	999999	0	0	1	1	0	150	0	0	0	0	7500	0	2000	0	500	0	0	0	ここでしか手に入らないキャラクターが必ず出現！しかもレアキャラ以上確定!!
20180101	0	20300101	0	80200	999999	0	0	2	3	33	30	0	0	0	0	7500	0	2000	0	500	0	0	0		23	30	0	0	0	0	7500	0	2000	0	500	0	0	0		0	30	0	0	0	0	7500	0	2000	0	500	0	0	0	
20180101	0	20300101	0	80200	999999	0	0	3	3	33	75	0	0	0	0	7500	0	2000	0	500	0	0	0		23	75	0	0	0	0	7500	0	2000	0	500	0	0	0		0	75	0	0	0	0	7500	0	2000	0	500	0	0	0	
20200710	1100	20300101	000	90700	999999	0	0	1	4	-1	0	0	0	0	0	0	0	0	0	0	0	0	0		-1	0	0	0	0	0	0	0	0	0	0	0	0	0		-1	0	0	0	0	0	0	0	0	0	0	0	0	0		525	0	0	0	0	0	0	0	0	0	10000	0	0	0	超激レアのキャラクターが必ず１体手に入る「プラチナガチャ」！
20201009	1100	20300101	000	91000	999999	0	0	1	4	-1	0	0	0	0	0	0	0	0	0	0	0	0	0		-1	0	0	0	0	0	0	0	0	0	0	0	0	0		-1	0	0	0	0	0	0	0	0	0	0	0	0	0		543	0	0	0	0	0	0	0	0	0	10000	0	0	0	超激レアのキャラクターが必ず１体手に入る「プラチナガチャ」！
20201012	1100	20201014	1100	91000	999999	0	0	1	1	517	150	0	0	0	0	6970	0	2500	0	500	0	30	0	新キャラ「オイルガ」参戦！謎だらけのキモかわ生命体！★詳細はバナーをタップ!!
20201014	1100	20201016	1100	91000	999999	0	0	1	1	427	150	0	0	0	0	6970	0	2500	0	500	0	30	0	黒い敵相手に大暴れ！強力な効果を持つ戦国武将達！★詳細はバナーをタップ!!
20201007	1100	20201013	1100	91000	999999	0	0	0	2	-1	0	0	0	0	0	0	0	0	0	0	0	0	0		5	0	0	2	500	0	7000	0	2000	0	500	0	0	0	高確率でキャッツアイが手に入るイベント限定特別ガチャ！
20201013	1100	20201019	1100	91000	999999	0	0	0	2	-1	0	0	0	0	0	0	0	0	0	0	0	0	0		3	0	300	0	400	0	2000	0	7000	0	600	0	0	0	高確率でマタタビが手に入るイベント限定特別ガチャ！
20201016	1100	20201101	2359	91000	999999	0	0	0	4	-1	0	0	0	0	0	0	0	0	0	0	0	0	0		-1	0	0	0	0	0	0	0	0	0	0	0	0	0		-1	0	0	0	0	0	0	0	0	0	0	0	0	0		52	0	300	0	0	0	5100	0	3500	0	1400	0	0	0	【期間限定】ネコビタンとXPが手に入る特別仕様ガチャ！★11月1日まで！
20201016	1100	20201019	1100	91000	999999	0	0	1	1	542	150	0	0	0	0	6500	0	2600	0	900	0	0	0	超激レアキャラが一堂に集結!!★超激レア出現率超アップの「極ネコ祭」開催中!!
20201016	1100	20201030	1100	91000	999999	0	0	1	2	-1	0	0	0	0	0	0	0	0	0	0	0	0	0		414	150	0	0	0	0	7000	0	2500	0	500	0	0	0	メルクストーリアのキャラだけが登場する特別ガチャ！★詳細はバナーをタップ!!
20201019	1100	20201030	1100	91000	999999	0	0	1	1	414	150	0	0	0	0	7000	0	2500	0	500	0	0	0	メルクストーリアのキャラだけが登場する特別ガチャ！★詳細はバナーをタップ!!
20201019	1100	20201101	1100	91000	999999	0	0	1	2	-1	0	0	0	0	0	0	0	0	0	0	0	0	0		544	150	0	0	0	0	7000	0	2500	0	500	0	0	0	新キャラ追加！ハロウィン限定のキャラクターをGET！★詳細はバナーをタップ!!
20201019	1100	20201021	1100	91000	999999	0	0	1	3	-1	0	0	0	0	0	0	0	0	0	0	0	0	0		-1	0	0	0	0	0	0	0	0	0	0	0	0	0		487	150	0	0	0	0	6970	0	2500	0	500	0	30	0	正義と闇の力を併せ持つ、にゃんこ軍団の救世主達！★詳細はバナーをタップ!!
20201021	1100	20201023	1100	91000	999999	0	0	1	3	-1	0	0	0	0	0	0	0	0	0	0	0	0	0		-1	0	0	0	0	0	0	0	0	0	0	0	0	0		424	150	0	0	0	0	6970	0	2500	0	500	0	30	0	バラエティ豊富な世界一即戦力になるにゃんこ達！★詳細はバナーをタップ!!
20201023	1100	20201026	1100	91000	999999	0	0	1	3	-1	0	0	0	0	0	0	0	0	0	0	0	0	0		-1	0	0	0	0	0	0	0	0	0	0	0	0	0		475	150	0	0	0	0	6970	0	2500	0	500	0	30	0	にゃんこワールド最大級の仰天進化を遂げる古代の勇者達！★詳細はバナーをタップ!!
[end]
