[start]
20180109	1100	20300101	0	60700	999999	0	0	0	1	0	0	0	0	10000	0	0	0	0	0	0	0	0	0	
20180101	0	20300101	0	80200	999999	0	0	2	3	33	30	0	0	0	0	7500	0	2000	0	500	0	0	0		23	30	0	0	0	0	7500	0	2000	0	500	0	0	0		0	30	0	0	0	0	7500	0	2000	0	500	0	0	0	
20180101	0	20300101	0	80200	999999	0	0	3	3	33	75	0	0	0	0	7500	0	2000	0	500	0	0	0		23	75	0	0	0	0	7500	0	2000	0	500	0	0	0		0	75	0	0	0	0	7500	0	2000	0	500	0	0	0	
20210426	1100	20300101	000	100400	999999	0	0	0	3	-1	0	0	0	0	0	0	0	0	0	0	0	0	0		-1	0	0	0	0	0	0	0	0	0	0	0	0	0		62	0	0	0	0	0	7400	0	2100	0	500	0	0	0	ちびネコ達が手に入る特別仕様のイベントガチャ！
20210316	1100	20300101	000	100400	999999	0	0	0	4	-1	0	0	0	0	0	0	0	0	0	0	0	0	0		-1	0	0	0	0	0	0	0	0	0	0	0	0	0		-1	0	0	0	0	0	0	0	0	0	0	0	0	0		63	0	300	0	0	0	5100	0	3500	0	1400	0	0	0	ネコビタンとXPが手に入る特別仕様ガチャ！
20211208	000	20300101	000	110100	999999	0	0	0	1	64	0	2300	0	10000	0	0	0	0	0	0	0	0	0	
20230101	000	20300101	000	120000	999999	0	0	1	4	-1	0	0	0	0	0	0	0	0	0	0	0	0	0		-1	0	0	0	0	0	0	0	0	0	0	0	0	0		-1	0	0	0	0	0	0	0	0	0	0	0	0	0		783	0	0	0	0	0	0	0	0	0	9500	0	500	0	超激レア以上のキャラクターが必ず１体手に入る「レジェンドガチャ」！
20230101	000	20300101	000	120000	999999	0	0	1	5	-1	0	0	0	0	0	0	0	0	0	0	0	0	0		-1	0	0	0	0	0	0	0	0	0	0	0	0	0		-1	0	0	0	0	0	0	0	0	0	0	0	0	0		-1	0	0	0	0	0	0	0	0	0	0	0	0	0		782	0	0	0	0	0	0	0	0	0	10000	0	0	0	超激レアのキャラクターが必ず１体手に入る「プラチナガチャ」！
20230224	1100	20300101	000	120100	999999	0	0	1	4	-1	0	0	0	0	0	0	0	0	0	0	0	0	0		-1	0	0	0	0	0	0	0	0	0	0	0	0	0		-1	0	0	0	0	0	0	0	0	0	0	0	0	0		794	0	0	0	0	0	0	0	0	0	9500	0	500	0	超激レア以上のキャラクターが必ず１体手に入る「レジェンドガチャ」！
20230224	1100	20300101	000	120100	999999	0	0	1	5	-1	0	0	0	0	0	0	0	0	0	0	0	0	0		-1	0	0	0	0	0	0	0	0	0	0	0	0	0		-1	0	0	0	0	0	0	0	0	0	0	0	0	0		-1	0	0	0	0	0	0	0	0	0	0	0	0	0		793	0	0	0	0	0	0	0	0	0	10000	0	0	0	超激レアのキャラクターが必ず１体手に入る「プラチナガチャ」！
20230227	1100	20230306	1100	120000	999999	0	0	0	2	-1	0	0	0	0	0	0	0	0	0	0	0	0	0		5	0	0	2	500	0	7000	0	2000	0	500	0	0	0	高確率でキャッツアイが手に入るイベント限定特別ガチャ！
20230301	1100	20230304	1100	120100	999999	0	0	1	1	791	150	0	0	0	0	6500	0	2600	0	900	0	0	0	「運命の子フォノ」参戦！★超激レア出現率超アップの「超ネコ祭」開催中!!	0
20230304	1100	20230306	1100	120100	999999	0	0	1	3	-1	0	0	0	0	0	0	0	0	0	0	0	0	0		-1	0	0	0	0	0	0	0	0	0	0	0	0	0		752	150	0	16384	0	0	6970	0	2500	0	500	0	30	0	超生命体特効を持つキャラ「周遊芸団カルーセルズ」参戦！★詳細はバナーをタップ!!
20230306	1100	20230403	2359	120100	999999	0	0	4	1	23	0	0	0	1000	0	4000	0	2000	0	3000	1	0	0	【トキメキにゃんこ学園】伝説のラブレターで回せる限定ガチャ！★4月3日まで	このガチャをあと	回ガチャれば4種類の限定キャラから1体が必ず出現！
20230306	1100	20230313	1100	120100	999999	0	0	0	2	-1	0	0	0	0	0	0	0	0	0	0	0	0	0		3	0	300	0	400	0	2000	0	7000	0	600	0	0	0	高確率でマタタビが手に入るイベント限定特別ガチャ！
20230306	1100	20230308	1100	120100	999999	0	0	1	1	709	150	0	0	0	0	6440	0	2500	0	1000	0	60	0	★超激・伝説レア出現率2倍!★黒い敵相手に大暴れ！強力な効果を持つ戦国武将達！
20230306	1100	20230308	1100	120100	999999	0	0	1	2	-1	0	0	0	0	0	0	0	0	0	0	0	0	0		719	150	0	0	0	0	6440	0	2500	0	1000	0	60	0	★超激・伝説レア出現率2倍!★宇宙の果てからやって来た、個性的で愉快な精霊達！
20230306	1100	20230308	1100	120100	999999	0	0	1	3	-1	0	0	0	0	0	0	0	0	0	0	0	0	0		-1	0	0	0	0	0	0	0	0	0	0	0	0	0		662	150	0	0	0	0	6440	0	2500	0	1000	0	60	0	★超激・伝説レア出現率2倍!★正義と闇の力を併せ持つ、にゃんこ軍団の救世主達！
20230308	1100	20230311	1100	120100	999999	0	0	1	1	678	150	0	0	0	0	6440	0	2500	0	1000	0	60	0	★超激・伝説レア出現率2倍!★にゃんこワールドの偉大なる神々、ここに集結！
20230308	1100	20230311	1100	120100	999999	0	0	1	2	-1	0	0	0	0	0	0	0	0	0	0	0	0	0		694	150	0	0	0	0	6440	0	2500	0	1000	0	60	0	★超激・伝説レア出現率2倍!★邪魔する敵をやっつける！パワフルでキュートな電脳少女達！
20230308	1100	20230311	1100	120100	999999	0	0	1	3	-1	0	0	0	0	0	0	0	0	0	0	0	0	0		-1	0	0	0	0	0	0	0	0	0	0	0	0	0		732	150	0	0	0	0	6440	0	2500	0	1000	0	60	0	★超激・伝説レア出現率2倍!★圧倒的な存在感を放つ、強力なドラゴン達を手に入れよう！
20230311	1100	20230313	1100	120100	999999	0	0	1	1	742	150	0	0	0	0	6440	0	2500	0	1000	0	60	0	★超激・伝説レア出現率2倍!★バラエティ豊富な世界一即戦力になるにゃんこ達！
20230311	1100	20230313	1100	120100	999999	0	0	1	2	-1	0	0	0	0	0	0	0	0	0	0	0	0	0		626	150	0	0	0	0	6440	0	2500	0	1000	0	60	0	★超激・伝説レア出現率2倍!★ねこなのか何なのか、謎に包まれたキモかわ生命体！
20230311	1100	20230313	1100	120100	999999	0	0	1	3	-1	0	0	0	0	0	0	0	0	0	0	0	0	0		-1	0	0	0	0	0	0	0	0	0	0	0	0	0		753	150	0	0	0	0	6440	0	2500	0	1000	0	60	0	★超激・伝説レア出現率2倍!★ゾンビを蹴散らすにゃんこ軍団の超兵器！
[end]
