[start]
20180109	1100	20300101	0	60700	999999	0	0	0	1	0	0	0	0	10000	0	0	0	0	0	0	0	0	0	
20180101	0	20300101	0	80200	999999	0	0	2	3	33	30	0	0	0	0	7500	0	2000	0	500	0	0	0		23	30	0	0	0	0	7500	0	2000	0	500	0	0	0		0	30	0	0	0	0	7500	0	2000	0	500	0	0	0	
20180101	0	20300101	0	80200	999999	0	0	3	3	33	75	0	0	0	0	7500	0	2000	0	500	0	0	0		23	75	0	0	0	0	7500	0	2000	0	500	0	0	0		0	75	0	0	0	0	7500	0	2000	0	500	0	0	0	
20210426	1100	20300101	000	100400	999999	0	0	0	3	-1	0	0	0	0	0	0	0	0	0	0	0	0	0		-1	0	0	0	0	0	0	0	0	0	0	0	0	0		62	0	0	0	0	0	7400	0	2100	0	500	0	0	0	ちびネコ達が手に入る特別仕様のイベントガチャ！
20210316	1100	20300101	000	100400	999999	0	0	0	4	-1	0	0	0	0	0	0	0	0	0	0	0	0	0		-1	0	0	0	0	0	0	0	0	0	0	0	0	0		-1	0	0	0	0	0	0	0	0	0	0	0	0	0		63	0	300	0	0	0	5100	0	3500	0	1400	0	0	0	ネコビタンとXPが手に入る特別仕様ガチャ！
20211208	000	20300101	000	110100	999999	0	0	0	1	64	0	2300	0	10000	0	0	0	0	0	0	0	0	0	
20230101	000	20300101	000	120000	999999	0	0	1	4	-1	0	0	0	0	0	0	0	0	0	0	0	0	0		-1	0	0	0	0	0	0	0	0	0	0	0	0	0		-1	0	0	0	0	0	0	0	0	0	0	0	0	0		783	0	0	0	0	0	0	0	0	0	9500	0	500	0	超激レア以上のキャラクターが必ず１体手に入る「レジェンドガチャ」！
20230101	000	20300101	000	120000	999999	0	0	1	5	-1	0	0	0	0	0	0	0	0	0	0	0	0	0		-1	0	0	0	0	0	0	0	0	0	0	0	0	0		-1	0	0	0	0	0	0	0	0	0	0	0	0	0		-1	0	0	0	0	0	0	0	0	0	0	0	0	0		782	0	0	0	0	0	0	0	0	0	10000	0	0	0	超激レアのキャラクターが必ず１体手に入る「プラチナガチャ」！
20230224	1100	20300101	000	120100	999999	0	0	1	4	-1	0	0	0	0	0	0	0	0	0	0	0	0	0		-1	0	0	0	0	0	0	0	0	0	0	0	0	0		-1	0	0	0	0	0	0	0	0	0	0	0	0	0		794	0	0	0	0	0	0	0	0	0	9500	0	500	0	超激レア以上のキャラクターが必ず１体手に入る「レジェンドガチャ」！
20230224	1100	20300101	000	120100	999999	0	0	1	5	-1	0	0	0	0	0	0	0	0	0	0	0	0	0		-1	0	0	0	0	0	0	0	0	0	0	0	0	0		-1	0	0	0	0	0	0	0	0	0	0	0	0	0		-1	0	0	0	0	0	0	0	0	0	0	0	0	0		793	0	0	0	0	0	0	0	0	0	10000	0	0	0	超激レアのキャラクターが必ず１体手に入る「プラチナガチャ」！
20230324	1100	20300101	000	120200	999999	0	0	1	4	-1	0	0	0	0	0	0	0	0	0	0	0	0	0		-1	0	0	0	0	0	0	0	0	0	0	0	0	0		-1	0	0	0	0	0	0	0	0	0	0	0	0	0		803	0	0	0	0	0	0	0	0	0	9500	0	500	0	超激レア以上のキャラクターが必ず１体手に入る「レジェンドガチャ」！
20230324	1100	20300101	000	120200	999999	0	0	1	5	-1	0	0	0	0	0	0	0	0	0	0	0	0	0		-1	0	0	0	0	0	0	0	0	0	0	0	0	0		-1	0	0	0	0	0	0	0	0	0	0	0	0	0		-1	0	0	0	0	0	0	0	0	0	0	0	0	0		802	0	0	0	0	0	0	0	0	0	10000	0	0	0	超激レアのキャラクターが必ず１体手に入る「プラチナガチャ」！
20230417	1100	20230501	1100	120300	999999	0	0	0	2	-1	0	0	0	0	0	0	0	0	0	0	0	0	0		65	0	0	2	500	0	6900	0	2000	0	500	0	100	0	高確率でキャッツアイが手に入るイベント限定特別ガチャ！
20230426	1100	20230428	1100	120300	999999	0	0	1	3	-1	0	0	0	0	0	0	0	0	0	0	0	0	0		-1	0	0	0	0	0	0	0	0	0	0	0	0	0		718	150	0	0	0	0	6970	0	2500	0	500	1	30	0	超生命体特効を持つキャラクター「氷の精霊フリズ」参戦！★詳細はバナーをタップ!!
20230428	1100	20230501	1100	120300	999999	0	0	1	3	-1	0	0	0	0	0	0	0	0	0	0	0	0	0		-1	0	0	0	0	0	0	0	0	0	0	0	0	0		709	150	0	0	0	0	6970	0	2500	0	500	1	30	0	超生命体特効を持つキャラクター「服部半蔵」参戦！★詳細はバナーをタップ!!
20230501	1100	20230515	1100	120300	999999	0	0	0	2	-1	0	0	0	0	0	0	0	0	0	0	0	0	0		3	0	300	0	400	0	2000	0	7000	0	600	0	0	0	高確率でマタタビが手に入るイベント限定特別ガチャ！
20230501	1100	20230504	1100	120300	999999	0	0	1	1	806	150	0	4216	0	0	6500	0	2500	0	1000	0	0	0	新限定キャラクター「非命の王フォノウ」参戦！★超激出現率が最大アップの特別なガチャ！
20230501	1100	20300101	000	120300	999999	0	0	1	4	-1	0	0	0	0	0	0	0	0	0	0	0	0	0		-1	0	0	0	0	0	0	0	0	0	0	0	0	0		-1	0	0	0	0	0	0	0	0	0	0	0	0	0		809	0	0	0	0	0	0	0	0	0	9500	0	500	0	超激レア以上のキャラクターが必ず１体手に入る「レジェンドガチャ」！
20230501	1100	20300101	000	120300	999999	0	0	1	5	-1	0	0	0	0	0	0	0	0	0	0	0	0	0		-1	0	0	0	0	0	0	0	0	0	0	0	0	0		-1	0	0	0	0	0	0	0	0	0	0	0	0	0		-1	0	0	0	0	0	0	0	0	0	0	0	0	0		808	0	0	0	0	0	0	0	0	0	10000	0	0	0	超激レアのキャラクターが必ず１体手に入る「プラチナガチャ」！
20230504	1100	20230506	1100	120300	999999	0	0	1	1	769	150	0	4216	0	0	6970	0	2500	0	500	0	30	0	10と1/2周年記念！感謝の気持ちを込めた特別なガチャ！★詳細はバナーをタップ!!
20230504	1100	20230506	1100	120300	999999	0	0	1	3	-1	0	0	0	0	0	0	0	0	0	0	0	0	0		-1	0	0	0	0	0	0	0	0	0	0	0	0	0		732	150	0	20600	0	0	6970	0	2500	0	500	0	30	0	超生命体特効を持つキャラクター「海龍ダライアサン」参戦！★詳細はバナーをタップ!!
20230506	1100	20230508	1100	120300	999999	0	0	1	1	770	150	0	4216	0	0	6970	0	2500	0	500	0	30	0	10と1/2周年記念！感謝の気持ちを込めた特別なガチャ！★詳細はバナーをタップ!!
20230506	1100	20230508	1100	120300	999999	0	0	1	3	-1	0	0	0	0	0	0	0	0	0	0	0	0	0		-1	0	0	0	0	0	0	0	0	0	0	0	0	0		626	150	0	20600	0	0	6970	0	2500	0	500	0	30	0	バリアもシールドも破壊するキャラクター「オコルガ」参戦！★詳細はバナーをタップ!!
20230508	1100	20230510	1100	120300	999999	0	0	1	1	771	150	0	4216	0	0	6970	0	2500	0	500	0	30	0	10と1/2周年記念！感謝の気持ちを込めた特別なガチャ！★詳細はバナーをタップ!!
20230508	1100	20230510	1100	120300	999999	0	0	1	3	-1	0	0	0	0	0	0	0	0	0	0	0	0	0		-1	0	0	0	0	0	0	0	0	0	0	0	0	0		695	150	0	20600	0	0	6970	0	2500	0	500	0	30	0	超生命体特効を持つキャラクター「狩猟娘テルン」参戦！★詳細はバナーをタップ!!
20230510	1100	20230512	1100	120300	999999	0	0	1	1	696	150	0	4220	0	0	7000	0	2500	0	500	0	0	0	赤い敵対策はお任せ！限定キャラも登場する特別版！★おまけアップイベント開催中!!
20230510	1100	20230512	1100	120300	999999	0	0	1	2	-1	0	0	0	0	0	0	0	0	0	0	0	0	0		452	150	0	4220	0	0	7000	0	2500	0	500	0	0	0	浮いてる敵に対して強力効果の「エアバスターズ」！★おまけアップイベント開催中!!
20230510	1100	20230512	1100	120300	999999	0	0	1	3	-1	0	0	0	0	0	0	0	0	0	0	0	0	0		-1	0	0	0	0	0	0	0	0	0	0	0	0	0		710	150	0	4220	0	0	7000	0	2500	0	500	0	0	0	メタルな敵に効果絶大！限定キャラも登場の特別版！★おまけアップイベント開催中!!
20230512	1100	20230515	1100	120300	999999	0	0	1	1	523	150	0	4220	0	0	7000	0	2500	0	500	0	0	0	敵の波動攻撃に強いキャラが揃う「波動バスターズ」！★おまけアップイベント開催中!!
20230512	1100	20230515	1100	120300	999999	0	0	1	2	-1	0	0	0	0	0	0	0	0	0	0	0	0	0		772	150	0	4220	0	0	7000	0	2500	0	500	0	0	0	超生命体に強いキャラクターが揃う特別なガチャ！★おまけアップイベント開催中!!
[end]
